@relation dataset1
@attribute turno{mañana,tarde,noche}
@attribute edad{me,Ma}
@attribute sexo{PorFavor,NoGracias}
@data
mañana,me,PorFavor
mañana,me,NoGracias
mañana,Ma,NoGracias
tarde,me,NoGracias
noche,Ma,NoGracias