@relation wisconsin-breast-cancer-weka.filters.unsupervised.attribute.Discretize-B10-M-1.0-Rfirst-last-precision6-weka.filters.unsupervised.attribute.Remove-R9-weka.filters.unsupervised.attribute.Remove-R6-weka.filters.unsupervised.attribute.Remove-R7
@attribute Clump_Thickness{'\'<-inf-1.9]\'','\'<1.9-2.8]\'','\'<2.8-3.7]\'','\'<3.7-4.6]\'','\'<4.6-5.5]\'','\'<5.5-6.4]\'','\'<6.4-7.3]\'','\'<7.3-8.2]\'','\'<8.2-9.1]\'','\'<9.1-inf)\''}
@attribute Cell_Size_Uniformity{'\'<-inf-1.9]\'','\'<1.9-2.8]\'','\'<2.8-3.7]\'','\'<3.7-4.6]\'','\'<4.6-5.5]\'','\'<5.5-6.4]\'','\'<6.4-7.3]\'','\'<7.3-8.2]\'','\'<8.2-9.1]\'','\'<9.1-inf)\''}
@attribute Cell_Shape_Uniformity{'\'<-inf-1.9]\'','\'<1.9-2.8]\'','\'<2.8-3.7]\'','\'<3.7-4.6]\'','\'<4.6-5.5]\'','\'<5.5-6.4]\'','\'<6.4-7.3]\'','\'<7.3-8.2]\'','\'<8.2-9.1]\'','\'<9.1-inf)\''}
@attribute Marginal_Adhesion{'\'<-inf-1.9]\'','\'<1.9-2.8]\'','\'<2.8-3.7]\'','\'<3.7-4.6]\'','\'<4.6-5.5]\'','\'<5.5-6.4]\'','\'<6.4-7.3]\'','\'<7.3-8.2]\'','\'<8.2-9.1]\'','\'<9.1-inf)\''}
@attribute Single_Epi_Cell_Size{'\'<-inf-1.9]\'','\'<1.9-2.8]\'','\'<2.8-3.7]\'','\'<3.7-4.6]\'','\'<4.6-5.5]\'','\'<5.5-6.4]\'','\'<6.4-7.3]\'','\'<7.3-8.2]\'','\'<8.2-9.1]\'','\'<9.1-inf)\''}
@attribute Bland_Chromatin{'\'<-inf-1.9]\'','\'<1.9-2.8]\'','\'<2.8-3.7]\'','\'<3.7-4.6]\'','\'<4.6-5.5]\'','\'<5.5-6.4]\'','\'<6.4-7.3]\'','\'<7.3-8.2]\'','\'<8.2-9.1]\'','\'<9.1-inf)\''}
@attribute Class{benign,malignant}
@data
'\'<4.6-5.5]\'','\'<-inf-1.9]\'','\'<-inf-1.9]\'','\'<-inf-1.9]\'','\'<1.9-2.8]\'','\'<2.8-3.7]\'',benign
'\'<4.6-5.5]\'','\'<3.7-4.6]\'','\'<3.7-4.6]\'','\'<4.6-5.5]\'','\'<6.4-7.3]\'','\'<2.8-3.7]\'',benign
'\'<2.8-3.7]\'','\'<-inf-1.9]\'','\'<-inf-1.9]\'','\'<-inf-1.9]\'','\'<1.9-2.8]\'','\'<2.8-3.7]\'',benign
'\'<5.5-6.4]\'','\'<7.3-8.2]\'','\'<7.3-8.2]\'','\'<-inf-1.9]\'','\'<2.8-3.7]\'','\'<2.8-3.7]\'',benign
'\'<3.7-4.6]\'','\'<-inf-1.9]\'','\'<-inf-1.9]\'','\'<2.8-3.7]\'','\'<1.9-2.8]\'','\'<2.8-3.7]\'',benign
'\'<7.3-8.2]\'','\'<9.1-inf)\'','\'<9.1-inf)\'','\'<7.3-8.2]\'','\'<6.4-7.3]\'','\'<8.2-9.1]\'',malignant
'\'<-inf-1.9]\'','\'<-inf-1.9]\'','\'<-inf-1.9]\'','\'<-inf-1.9]\'','\'<1.9-2.8]\'','\'<2.8-3.7]\'',benign
'\'<1.9-2.8]\'','\'<-inf-1.9]\'','\'<1.9-2.8]\'','\'<-inf-1.9]\'','\'<1.9-2.8]\'','\'<2.8-3.7]\'',benign
'\'<1.9-2.8]\'','\'<-inf-1.9]\'','\'<-inf-1.9]\'','\'<-inf-1.9]\'','\'<1.9-2.8]\'','\'<-inf-1.9]\'',benign
'\'<3.7-4.6]\'','\'<1.9-2.8]\'','\'<-inf-1.9]\'','\'<-inf-1.9]\'','\'<1.9-2.8]\'','\'<1.9-2.8]\'',benign
'\'<-inf-1.9]\'','\'<-inf-1.9]\'','\'<-inf-1.9]\'','\'<-inf-1.9]\'','\'<-inf-1.9]\'','\'<2.8-3.7]\'',benign
'\'<1.9-2.8]\'','\'<-inf-1.9]\'','\'<-inf-1.9]\'','\'<-inf-1.9]\'','\'<1.9-2.8]\'','\'<1.9-2.8]\'',benign
'\'<4.6-5.5]\'','\'<2.8-3.7]\'','\'<2.8-3.7]\'','\'<2.8-3.7]\'','\'<1.9-2.8]\'','\'<3.7-4.6]\'',malignant
'\'<-inf-1.9]\'','\'<-inf-1.9]\'','\'<-inf-1.9]\'','\'<-inf-1.9]\'','\'<1.9-2.8]\'','\'<2.8-3.7]\'',benign
'\'<7.3-8.2]\'','\'<6.4-7.3]\'','\'<4.6-5.5]\'','\'<9.1-inf)\'','\'<6.4-7.3]\'','\'<4.6-5.5]\'',malignant
'\'<6.4-7.3]\'','\'<3.7-4.6]\'','\'<5.5-6.4]\'','\'<3.7-4.6]\'','\'<5.5-6.4]\'','\'<3.7-4.6]\'',malignant
'\'<3.7-4.6]\'','\'<-inf-1.9]\'','\'<-inf-1.9]\'','\'<-inf-1.9]\'','\'<1.9-2.8]\'','\'<1.9-2.8]\'',benign
'\'<3.7-4.6]\'','\'<-inf-1.9]\'','\'<-inf-1.9]\'','\'<-inf-1.9]\'','\'<1.9-2.8]\'','\'<2.8-3.7]\'',benign
'\'<9.1-inf)\'','\'<6.4-7.3]\'','\'<6.4-7.3]\'','\'<5.5-6.4]\'','\'<3.7-4.6]\'','\'<3.7-4.6]\'',malignant
'\'<5.5-6.4]\'','\'<-inf-1.9]\'','\'<-inf-1.9]\'','\'<-inf-1.9]\'','\'<1.9-2.8]\'','\'<2.8-3.7]\'',benign
'\'<6.4-7.3]\'','\'<2.8-3.7]\'','\'<1.9-2.8]\'','\'<9.1-inf)\'','\'<4.6-5.5]\'','\'<4.6-5.5]\'',malignant
'\'<9.1-inf)\'','\'<4.6-5.5]\'','\'<4.6-5.5]\'','\'<2.8-3.7]\'','\'<5.5-6.4]\'','\'<6.4-7.3]\'',malignant
'\'<2.8-3.7]\'','\'<-inf-1.9]\'','\'<-inf-1.9]\'','\'<-inf-1.9]\'','\'<1.9-2.8]\'','\'<1.9-2.8]\'',benign
'\'<7.3-8.2]\'','\'<3.7-4.6]\'','\'<4.6-5.5]\'','\'<-inf-1.9]\'','\'<1.9-2.8]\'','\'<6.4-7.3]\'',malignant
'\'<-inf-1.9]\'','\'<-inf-1.9]\'','\'<-inf-1.9]\'','\'<-inf-1.9]\'','\'<1.9-2.8]\'','\'<2.8-3.7]\'',benign
'\'<4.6-5.5]\'','\'<1.9-2.8]\'','\'<2.8-3.7]\'','\'<3.7-4.6]\'','\'<1.9-2.8]\'','\'<2.8-3.7]\'',malignant
'\'<2.8-3.7]\'','\'<1.9-2.8]\'','\'<-inf-1.9]\'','\'<-inf-1.9]\'','\'<-inf-1.9]\'','\'<1.9-2.8]\'',benign
'\'<4.6-5.5]\'','\'<-inf-1.9]\'','\'<-inf-1.9]\'','\'<-inf-1.9]\'','\'<1.9-2.8]\'','\'<1.9-2.8]\'',benign
'\'<1.9-2.8]\'','\'<-inf-1.9]\'','\'<-inf-1.9]\'','\'<-inf-1.9]\'','\'<1.9-2.8]\'','\'<1.9-2.8]\'',benign
'\'<-inf-1.9]\'','\'<-inf-1.9]\'','\'<2.8-3.7]\'','\'<-inf-1.9]\'','\'<1.9-2.8]\'','\'<-inf-1.9]\'',benign
'\'<2.8-3.7]\'','\'<-inf-1.9]\'','\'<-inf-1.9]\'','\'<-inf-1.9]\'','\'<-inf-1.9]\'','\'<1.9-2.8]\'',benign
'\'<1.9-2.8]\'','\'<-inf-1.9]\'','\'<-inf-1.9]\'','\'<-inf-1.9]\'','\'<1.9-2.8]\'','\'<2.8-3.7]\'',benign
'\'<9.1-inf)\'','\'<6.4-7.3]\'','\'<6.4-7.3]\'','\'<2.8-3.7]\'','\'<7.3-8.2]\'','\'<6.4-7.3]\'',malignant
'\'<1.9-2.8]\'','\'<-inf-1.9]\'','\'<-inf-1.9]\'','\'<1.9-2.8]\'','\'<1.9-2.8]\'','\'<2.8-3.7]\'',benign
'\'<2.8-3.7]\'','\'<-inf-1.9]\'','\'<1.9-2.8]\'','\'<-inf-1.9]\'','\'<1.9-2.8]\'','\'<1.9-2.8]\'',benign
'\'<1.9-2.8]\'','\'<-inf-1.9]\'','\'<-inf-1.9]\'','\'<-inf-1.9]\'','\'<1.9-2.8]\'','\'<1.9-2.8]\'',benign
'\'<9.1-inf)\'','\'<9.1-inf)\'','\'<9.1-inf)\'','\'<7.3-8.2]\'','\'<5.5-6.4]\'','\'<7.3-8.2]\'',malignant
'\'<5.5-6.4]\'','\'<1.9-2.8]\'','\'<-inf-1.9]\'','\'<-inf-1.9]\'','\'<-inf-1.9]\'','\'<6.4-7.3]\'',benign
'\'<4.6-5.5]\'','\'<3.7-4.6]\'','\'<3.7-4.6]\'','\'<8.2-9.1]\'','\'<1.9-2.8]\'','\'<4.6-5.5]\'',malignant
'\'<1.9-2.8]\'','\'<4.6-5.5]\'','\'<2.8-3.7]\'','\'<2.8-3.7]\'','\'<5.5-6.4]\'','\'<6.4-7.3]\'',malignant
'\'<5.5-6.4]\'','\'<5.5-6.4]\'','\'<5.5-6.4]\'','\'<8.2-9.1]\'','\'<5.5-6.4]\'','\'<6.4-7.3]\'',benign
'\'<9.1-inf)\'','\'<3.7-4.6]\'','\'<2.8-3.7]\'','\'<-inf-1.9]\'','\'<2.8-3.7]\'','\'<5.5-6.4]\'',malignant
'\'<5.5-6.4]\'','\'<9.1-inf)\'','\'<9.1-inf)\'','\'<1.9-2.8]\'','\'<7.3-8.2]\'','\'<6.4-7.3]\'',malignant
'\'<4.6-5.5]\'','\'<5.5-6.4]\'','\'<4.6-5.5]\'','\'<5.5-6.4]\'','\'<9.1-inf)\'','\'<2.8-3.7]\'',malignant
'\'<9.1-inf)\'','\'<9.1-inf)\'','\'<9.1-inf)\'','\'<3.7-4.6]\'','\'<7.3-8.2]\'','\'<7.3-8.2]\'',malignant
'\'<-inf-1.9]\'','\'<-inf-1.9]\'','\'<-inf-1.9]\'','\'<-inf-1.9]\'','\'<1.9-2.8]\'','\'<1.9-2.8]\'',benign
'\'<2.8-3.7]\'','\'<6.4-7.3]\'','\'<6.4-7.3]\'','\'<3.7-4.6]\'','\'<3.7-4.6]\'','\'<3.7-4.6]\'',malignant
'\'<-inf-1.9]\'','\'<-inf-1.9]\'','\'<-inf-1.9]\'','\'<-inf-1.9]\'','\'<1.9-2.8]\'','\'<1.9-2.8]\'',benign
'\'<3.7-4.6]\'','\'<-inf-1.9]\'','\'<-inf-1.9]\'','\'<2.8-3.7]\'','\'<1.9-2.8]\'','\'<2.8-3.7]\'',benign
'\'<6.4-7.3]\'','\'<7.3-8.2]\'','\'<6.4-7.3]\'','\'<1.9-2.8]\'','\'<3.7-4.6]\'','\'<2.8-3.7]\'',malignant
'\'<8.2-9.1]\'','\'<4.6-5.5]\'','\'<7.3-8.2]\'','\'<-inf-1.9]\'','\'<1.9-2.8]\'','\'<1.9-2.8]\'',malignant
'\'<4.6-5.5]\'','\'<2.8-3.7]\'','\'<2.8-3.7]\'','\'<3.7-4.6]\'','\'<1.9-2.8]\'','\'<2.8-3.7]\'',malignant
'\'<9.1-inf)\'','\'<2.8-3.7]\'','\'<5.5-6.4]\'','\'<1.9-2.8]\'','\'<2.8-3.7]\'','\'<3.7-4.6]\'',malignant
'\'<4.6-5.5]\'','\'<4.6-5.5]\'','\'<4.6-5.5]\'','\'<7.3-8.2]\'','\'<9.1-inf)\'','\'<6.4-7.3]\'',malignant
'\'<9.1-inf)\'','\'<4.6-5.5]\'','\'<4.6-5.5]\'','\'<5.5-6.4]\'','\'<7.3-8.2]\'','\'<6.4-7.3]\'',malignant
'\'<9.1-inf)\'','\'<5.5-6.4]\'','\'<5.5-6.4]\'','\'<2.8-3.7]\'','\'<3.7-4.6]\'','\'<2.8-3.7]\'',malignant
'\'<7.3-8.2]\'','\'<9.1-inf)\'','\'<9.1-inf)\'','\'<-inf-1.9]\'','\'<2.8-3.7]\'','\'<2.8-3.7]\'',malignant
'\'<7.3-8.2]\'','\'<1.9-2.8]\'','\'<3.7-4.6]\'','\'<-inf-1.9]\'','\'<4.6-5.5]\'','\'<4.6-5.5]\'',malignant
'\'<4.6-5.5]\'','\'<1.9-2.8]\'','\'<2.8-3.7]\'','\'<-inf-1.9]\'','\'<5.5-6.4]\'','\'<4.6-5.5]\'',malignant
'\'<8.2-9.1]\'','\'<4.6-5.5]\'','\'<4.6-5.5]\'','\'<1.9-2.8]\'','\'<1.9-2.8]\'','\'<4.6-5.5]\'',malignant
'\'<4.6-5.5]\'','\'<2.8-3.7]\'','\'<4.6-5.5]\'','\'<4.6-5.5]\'','\'<2.8-3.7]\'','\'<3.7-4.6]\'',malignant
'\'<-inf-1.9]\'','\'<-inf-1.9]\'','\'<-inf-1.9]\'','\'<-inf-1.9]\'','\'<1.9-2.8]\'','\'<1.9-2.8]\'',benign
'\'<8.2-9.1]\'','\'<9.1-inf)\'','\'<9.1-inf)\'','\'<-inf-1.9]\'','\'<9.1-inf)\'','\'<2.8-3.7]\'',malignant
'\'<5.5-6.4]\'','\'<2.8-3.7]\'','\'<3.7-4.6]\'','\'<-inf-1.9]\'','\'<4.6-5.5]\'','\'<2.8-3.7]\'',malignant
'\'<-inf-1.9]\'','\'<-inf-1.9]\'','\'<-inf-1.9]\'','\'<-inf-1.9]\'','\'<1.9-2.8]\'','\'<1.9-2.8]\'',benign
'\'<9.1-inf)\'','\'<3.7-4.6]\'','\'<1.9-2.8]\'','\'<-inf-1.9]\'','\'<2.8-3.7]\'','\'<3.7-4.6]\'',malignant
'\'<3.7-4.6]\'','\'<-inf-1.9]\'','\'<-inf-1.9]\'','\'<-inf-1.9]\'','\'<1.9-2.8]\'','\'<2.8-3.7]\'',benign
'\'<4.6-5.5]\'','\'<2.8-3.7]\'','\'<3.7-4.6]\'','\'<-inf-1.9]\'','\'<7.3-8.2]\'','\'<3.7-4.6]\'',malignant
'\'<7.3-8.2]\'','\'<2.8-3.7]\'','\'<7.3-8.2]\'','\'<2.8-3.7]\'','\'<3.7-4.6]\'','\'<7.3-8.2]\'',malignant
'\'<-inf-1.9]\'','\'<-inf-1.9]\'','\'<-inf-1.9]\'','\'<-inf-1.9]\'','\'<1.9-2.8]\'','\'<2.8-3.7]\'',benign
'\'<4.6-5.5]\'','\'<-inf-1.9]\'','\'<2.8-3.7]\'','\'<-inf-1.9]\'','\'<1.9-2.8]\'','\'<1.9-2.8]\'',benign
'\'<5.5-6.4]\'','\'<9.1-inf)\'','\'<1.9-2.8]\'','\'<7.3-8.2]\'','\'<9.1-inf)\'','\'<6.4-7.3]\'',malignant
'\'<-inf-1.9]\'','\'<2.8-3.7]\'','\'<2.8-3.7]\'','\'<1.9-2.8]\'','\'<1.9-2.8]\'','\'<6.4-7.3]\'',benign
'\'<8.2-9.1]\'','\'<3.7-4.6]\'','\'<4.6-5.5]\'','\'<9.1-inf)\'','\'<5.5-6.4]\'','\'<3.7-4.6]\'',malignant
'\'<9.1-inf)\'','\'<5.5-6.4]\'','\'<3.7-4.6]\'','\'<-inf-1.9]\'','\'<2.8-3.7]\'','\'<2.8-3.7]\'',malignant
'\'<-inf-1.9]\'','\'<-inf-1.9]\'','\'<1.9-2.8]\'','\'<-inf-1.9]\'','\'<1.9-2.8]\'','\'<3.7-4.6]\'',benign
'\'<-inf-1.9]\'','\'<-inf-1.9]\'','\'<3.7-4.6]\'','\'<-inf-1.9]\'','\'<1.9-2.8]\'','\'<1.9-2.8]\'',benign
'\'<4.6-5.5]\'','\'<2.8-3.7]\'','\'<-inf-1.9]\'','\'<1.9-2.8]\'','\'<1.9-2.8]\'','\'<1.9-2.8]\'',benign
'\'<2.8-3.7]\'','\'<-inf-1.9]\'','\'<-inf-1.9]\'','\'<-inf-1.9]\'','\'<1.9-2.8]\'','\'<2.8-3.7]\'',benign
'\'<1.9-2.8]\'','\'<-inf-1.9]\'','\'<-inf-1.9]\'','\'<-inf-1.9]\'','\'<2.8-3.7]\'','\'<1.9-2.8]\'',benign
'\'<1.9-2.8]\'','\'<1.9-2.8]\'','\'<1.9-2.8]\'','\'<-inf-1.9]\'','\'<-inf-1.9]\'','\'<6.4-7.3]\'',benign
'\'<3.7-4.6]\'','\'<-inf-1.9]\'','\'<-inf-1.9]\'','\'<1.9-2.8]\'','\'<1.9-2.8]\'','\'<1.9-2.8]\'',benign
'\'<4.6-5.5]\'','\'<1.9-2.8]\'','\'<-inf-1.9]\'','\'<-inf-1.9]\'','\'<1.9-2.8]\'','\'<2.8-3.7]\'',benign
'\'<2.8-3.7]\'','\'<-inf-1.9]\'','\'<-inf-1.9]\'','\'<-inf-1.9]\'','\'<1.9-2.8]\'','\'<6.4-7.3]\'',benign
'\'<2.8-3.7]\'','\'<4.6-5.5]\'','\'<6.4-7.3]\'','\'<7.3-8.2]\'','\'<7.3-8.2]\'','\'<6.4-7.3]\'',malignant
'\'<4.6-5.5]\'','\'<9.1-inf)\'','\'<5.5-6.4]\'','\'<-inf-1.9]\'','\'<9.1-inf)\'','\'<3.7-4.6]\'',malignant
'\'<2.8-3.7]\'','\'<2.8-3.7]\'','\'<5.5-6.4]\'','\'<3.7-4.6]\'','\'<4.6-5.5]\'','\'<3.7-4.6]\'',malignant
'\'<2.8-3.7]\'','\'<5.5-6.4]\'','\'<5.5-6.4]\'','\'<5.5-6.4]\'','\'<4.6-5.5]\'','\'<5.5-6.4]\'',malignant
'\'<3.7-4.6]\'','\'<-inf-1.9]\'','\'<-inf-1.9]\'','\'<-inf-1.9]\'','\'<1.9-2.8]\'','\'<2.8-3.7]\'',benign
'\'<1.9-2.8]\'','\'<-inf-1.9]\'','\'<-inf-1.9]\'','\'<1.9-2.8]\'','\'<2.8-3.7]\'','\'<1.9-2.8]\'',benign
'\'<-inf-1.9]\'','\'<-inf-1.9]\'','\'<-inf-1.9]\'','\'<-inf-1.9]\'','\'<1.9-2.8]\'','\'<2.8-3.7]\'',benign
'\'<2.8-3.7]\'','\'<-inf-1.9]\'','\'<-inf-1.9]\'','\'<1.9-2.8]\'','\'<1.9-2.8]\'','\'<-inf-1.9]\'',benign
'\'<3.7-4.6]\'','\'<-inf-1.9]\'','\'<-inf-1.9]\'','\'<-inf-1.9]\'','\'<1.9-2.8]\'','\'<2.8-3.7]\'',benign
'\'<-inf-1.9]\'','\'<-inf-1.9]\'','\'<-inf-1.9]\'','\'<-inf-1.9]\'','\'<1.9-2.8]\'','\'<1.9-2.8]\'',benign
'\'<1.9-2.8]\'','\'<-inf-1.9]\'','\'<-inf-1.9]\'','\'<-inf-1.9]\'','\'<1.9-2.8]\'','\'<2.8-3.7]\'',benign
'\'<-inf-1.9]\'','\'<-inf-1.9]\'','\'<-inf-1.9]\'','\'<-inf-1.9]\'','\'<1.9-2.8]\'','\'<2.8-3.7]\'',benign
'\'<1.9-2.8]\'','\'<-inf-1.9]\'','\'<-inf-1.9]\'','\'<1.9-2.8]\'','\'<1.9-2.8]\'','\'<-inf-1.9]\'',benign
'\'<4.6-5.5]\'','\'<-inf-1.9]\'','\'<-inf-1.9]\'','\'<-inf-1.9]\'','\'<1.9-2.8]\'','\'<2.8-3.7]\'',benign
'\'<8.2-9.1]\'','\'<5.5-6.4]\'','\'<8.2-9.1]\'','\'<1.9-2.8]\'','\'<9.1-inf)\'','\'<1.9-2.8]\'',malignant
'\'<6.4-7.3]\'','\'<4.6-5.5]\'','\'<5.5-6.4]\'','\'<9.1-inf)\'','\'<4.6-5.5]\'','\'<6.4-7.3]\'',malignant
'\'<9.1-inf)\'','\'<2.8-3.7]\'','\'<4.6-5.5]\'','\'<-inf-1.9]\'','\'<9.1-inf)\'','\'<2.8-3.7]\'',malignant
'\'<1.9-2.8]\'','\'<2.8-3.7]\'','\'<3.7-4.6]\'','\'<3.7-4.6]\'','\'<1.9-2.8]\'','\'<1.9-2.8]\'',malignant
'\'<3.7-4.6]\'','\'<-inf-1.9]\'','\'<1.9-2.8]\'','\'<-inf-1.9]\'','\'<1.9-2.8]\'','\'<2.8-3.7]\'',benign
'\'<7.3-8.2]\'','\'<1.9-2.8]\'','\'<2.8-3.7]\'','\'<-inf-1.9]\'','\'<5.5-6.4]\'','\'<6.4-7.3]\'',malignant
'\'<9.1-inf)\'','\'<9.1-inf)\'','\'<9.1-inf)\'','\'<9.1-inf)\'','\'<9.1-inf)\'','\'<7.3-8.2]\'',malignant
'\'<6.4-7.3]\'','\'<2.8-3.7]\'','\'<3.7-4.6]\'','\'<3.7-4.6]\'','\'<2.8-3.7]\'','\'<2.8-3.7]\'',malignant
'\'<9.1-inf)\'','\'<9.1-inf)\'','\'<9.1-inf)\'','\'<7.3-8.2]\'','\'<1.9-2.8]\'','\'<3.7-4.6]\'',malignant
'\'<-inf-1.9]\'','\'<5.5-6.4]\'','\'<7.3-8.2]\'','\'<9.1-inf)\'','\'<7.3-8.2]\'','\'<4.6-5.5]\'',malignant
'\'<-inf-1.9]\'','\'<-inf-1.9]\'','\'<-inf-1.9]\'','\'<-inf-1.9]\'','\'<1.9-2.8]\'','\'<1.9-2.8]\'',benign
'\'<5.5-6.4]\'','\'<4.6-5.5]\'','\'<3.7-4.6]\'','\'<3.7-4.6]\'','\'<2.8-3.7]\'','\'<6.4-7.3]\'',malignant
'\'<-inf-1.9]\'','\'<2.8-3.7]\'','\'<-inf-1.9]\'','\'<1.9-2.8]\'','\'<1.9-2.8]\'','\'<4.6-5.5]\'',benign
'\'<7.3-8.2]\'','\'<5.5-6.4]\'','\'<3.7-4.6]\'','\'<2.8-3.7]\'','\'<4.6-5.5]\'','\'<2.8-3.7]\'',malignant
'\'<9.1-inf)\'','\'<2.8-3.7]\'','\'<2.8-3.7]\'','\'<9.1-inf)\'','\'<1.9-2.8]\'','\'<6.4-7.3]\'',malignant
'\'<9.1-inf)\'','\'<9.1-inf)\'','\'<9.1-inf)\'','\'<2.8-3.7]\'','\'<9.1-inf)\'','\'<7.3-8.2]\'',malignant
'\'<2.8-3.7]\'','\'<2.8-3.7]\'','\'<1.9-2.8]\'','\'<-inf-1.9]\'','\'<1.9-2.8]\'','\'<2.8-3.7]\'',benign
'\'<-inf-1.9]\'','\'<-inf-1.9]\'','\'<-inf-1.9]\'','\'<-inf-1.9]\'','\'<1.9-2.8]\'','\'<-inf-1.9]\'',benign
'\'<7.3-8.2]\'','\'<2.8-3.7]\'','\'<2.8-3.7]\'','\'<-inf-1.9]\'','\'<1.9-2.8]\'','\'<2.8-3.7]\'',benign
'\'<3.7-4.6]\'','\'<4.6-5.5]\'','\'<4.6-5.5]\'','\'<9.1-inf)\'','\'<3.7-4.6]\'','\'<6.4-7.3]\'',malignant
'\'<-inf-1.9]\'','\'<-inf-1.9]\'','\'<-inf-1.9]\'','\'<-inf-1.9]\'','\'<3.7-4.6]\'','\'<-inf-1.9]\'',benign
'\'<2.8-3.7]\'','\'<1.9-2.8]\'','\'<-inf-1.9]\'','\'<-inf-1.9]\'','\'<1.9-2.8]\'','\'<2.8-3.7]\'',benign
'\'<-inf-1.9]\'','\'<-inf-1.9]\'','\'<1.9-2.8]\'','\'<1.9-2.8]\'','\'<1.9-2.8]\'','\'<2.8-3.7]\'',benign
'\'<3.7-4.6]\'','\'<1.9-2.8]\'','\'<-inf-1.9]\'','\'<-inf-1.9]\'','\'<1.9-2.8]\'','\'<2.8-3.7]\'',benign
'\'<9.1-inf)\'','\'<9.1-inf)\'','\'<9.1-inf)\'','\'<1.9-2.8]\'','\'<9.1-inf)\'','\'<4.6-5.5]\'',malignant
'\'<4.6-5.5]\'','\'<2.8-3.7]\'','\'<4.6-5.5]\'','\'<-inf-1.9]\'','\'<7.3-8.2]\'','\'<4.6-5.5]\'',malignant
'\'<4.6-5.5]\'','\'<3.7-4.6]\'','\'<5.5-6.4]\'','\'<6.4-7.3]\'','\'<8.2-9.1]\'','\'<7.3-8.2]\'',malignant
'\'<-inf-1.9]\'','\'<-inf-1.9]\'','\'<-inf-1.9]\'','\'<-inf-1.9]\'','\'<1.9-2.8]\'','\'<1.9-2.8]\'',benign
'\'<6.4-7.3]\'','\'<4.6-5.5]\'','\'<2.8-3.7]\'','\'<6.4-7.3]\'','\'<3.7-4.6]\'','\'<6.4-7.3]\'',malignant
'\'<2.8-3.7]\'','\'<-inf-1.9]\'','\'<-inf-1.9]\'','\'<-inf-1.9]\'','\'<1.9-2.8]\'','\'<2.8-3.7]\'',benign
'\'<7.3-8.2]\'','\'<2.8-3.7]\'','\'<4.6-5.5]\'','\'<3.7-4.6]\'','\'<4.6-5.5]\'','\'<-inf-1.9]\'',malignant
'\'<-inf-1.9]\'','\'<-inf-1.9]\'','\'<-inf-1.9]\'','\'<-inf-1.9]\'','\'<9.1-inf)\'','\'<-inf-1.9]\'',benign
'\'<4.6-5.5]\'','\'<-inf-1.9]\'','\'<2.8-3.7]\'','\'<-inf-1.9]\'','\'<1.9-2.8]\'','\'<1.9-2.8]\'',benign
'\'<1.9-2.8]\'','\'<-inf-1.9]\'','\'<-inf-1.9]\'','\'<-inf-1.9]\'','\'<1.9-2.8]\'','\'<2.8-3.7]\'',benign
'\'<4.6-5.5]\'','\'<9.1-inf)\'','\'<7.3-8.2]\'','\'<9.1-inf)\'','\'<7.3-8.2]\'','\'<2.8-3.7]\'',malignant
'\'<2.8-3.7]\'','\'<-inf-1.9]\'','\'<-inf-1.9]\'','\'<-inf-1.9]\'','\'<1.9-2.8]\'','\'<1.9-2.8]\'',benign
'\'<2.8-3.7]\'','\'<-inf-1.9]\'','\'<-inf-1.9]\'','\'<-inf-1.9]\'','\'<2.8-3.7]\'','\'<1.9-2.8]\'',benign
'\'<4.6-5.5]\'','\'<-inf-1.9]\'','\'<-inf-1.9]\'','\'<-inf-1.9]\'','\'<1.9-2.8]\'','\'<2.8-3.7]\'',benign
'\'<3.7-4.6]\'','\'<-inf-1.9]\'','\'<-inf-1.9]\'','\'<-inf-1.9]\'','\'<1.9-2.8]\'','\'<1.9-2.8]\'',benign
'\'<2.8-3.7]\'','\'<-inf-1.9]\'','\'<-inf-1.9]\'','\'<-inf-1.9]\'','\'<1.9-2.8]\'','\'<-inf-1.9]\'',benign
'\'<3.7-4.6]\'','\'<-inf-1.9]\'','\'<1.9-2.8]\'','\'<-inf-1.9]\'','\'<1.9-2.8]\'','\'<1.9-2.8]\'',benign
'\'<-inf-1.9]\'','\'<-inf-1.9]\'','\'<-inf-1.9]\'','\'<-inf-1.9]\'','\'<-inf-1.9]\'','\'<1.9-2.8]\'',benign
'\'<2.8-3.7]\'','\'<-inf-1.9]\'','\'<-inf-1.9]\'','\'<-inf-1.9]\'','\'<1.9-2.8]\'','\'<-inf-1.9]\'',benign
'\'<1.9-2.8]\'','\'<-inf-1.9]\'','\'<-inf-1.9]\'','\'<-inf-1.9]\'','\'<1.9-2.8]\'','\'<-inf-1.9]\'',benign
'\'<8.2-9.1]\'','\'<4.6-5.5]\'','\'<4.6-5.5]\'','\'<3.7-4.6]\'','\'<3.7-4.6]\'','\'<3.7-4.6]\'',malignant
'\'<-inf-1.9]\'','\'<-inf-1.9]\'','\'<-inf-1.9]\'','\'<-inf-1.9]\'','\'<1.9-2.8]\'','\'<-inf-1.9]\'',benign
'\'<1.9-2.8]\'','\'<-inf-1.9]\'','\'<-inf-1.9]\'','\'<-inf-1.9]\'','\'<1.9-2.8]\'','\'<1.9-2.8]\'',benign
'\'<-inf-1.9]\'','\'<-inf-1.9]\'','\'<2.8-3.7]\'','\'<-inf-1.9]\'','\'<1.9-2.8]\'','\'<1.9-2.8]\'',benign
'\'<2.8-3.7]\'','\'<3.7-4.6]\'','\'<4.6-5.5]\'','\'<1.9-2.8]\'','\'<5.5-6.4]\'','\'<3.7-4.6]\'',malignant
'\'<-inf-1.9]\'','\'<-inf-1.9]\'','\'<-inf-1.9]\'','\'<-inf-1.9]\'','\'<2.8-3.7]\'','\'<1.9-2.8]\'',benign
'\'<2.8-3.7]\'','\'<-inf-1.9]\'','\'<-inf-1.9]\'','\'<2.8-3.7]\'','\'<7.3-8.2]\'','\'<4.6-5.5]\'',benign
'\'<7.3-8.2]\'','\'<7.3-8.2]\'','\'<6.4-7.3]\'','\'<3.7-4.6]\'','\'<9.1-inf)\'','\'<6.4-7.3]\'',malignant
'\'<-inf-1.9]\'','\'<-inf-1.9]\'','\'<-inf-1.9]\'','\'<-inf-1.9]\'','\'<-inf-1.9]\'','\'<2.8-3.7]\'',benign
'\'<6.4-7.3]\'','\'<1.9-2.8]\'','\'<3.7-4.6]\'','\'<-inf-1.9]\'','\'<5.5-6.4]\'','\'<4.6-5.5]\'',malignant
'\'<9.1-inf)\'','\'<9.1-inf)\'','\'<7.3-8.2]\'','\'<5.5-6.4]\'','\'<3.7-4.6]\'','\'<7.3-8.2]\'',malignant
'\'<3.7-4.6]\'','\'<-inf-1.9]\'','\'<-inf-1.9]\'','\'<-inf-1.9]\'','\'<1.9-2.8]\'','\'<-inf-1.9]\'',benign
'\'<-inf-1.9]\'','\'<-inf-1.9]\'','\'<-inf-1.9]\'','\'<-inf-1.9]\'','\'<1.9-2.8]\'','\'<-inf-1.9]\'',benign
'\'<4.6-5.5]\'','\'<4.6-5.5]\'','\'<4.6-5.5]\'','\'<5.5-6.4]\'','\'<2.8-3.7]\'','\'<2.8-3.7]\'',malignant
'\'<-inf-1.9]\'','\'<1.9-2.8]\'','\'<1.9-2.8]\'','\'<-inf-1.9]\'','\'<1.9-2.8]\'','\'<1.9-2.8]\'',benign
'\'<1.9-2.8]\'','\'<-inf-1.9]\'','\'<-inf-1.9]\'','\'<-inf-1.9]\'','\'<1.9-2.8]\'','\'<2.8-3.7]\'',benign
'\'<-inf-1.9]\'','\'<-inf-1.9]\'','\'<1.9-2.8]\'','\'<-inf-1.9]\'','\'<2.8-3.7]\'','\'<-inf-1.9]\'',benign
'\'<8.2-9.1]\'','\'<8.2-9.1]\'','\'<9.1-inf)\'','\'<2.8-3.7]\'','\'<5.5-6.4]\'','\'<6.4-7.3]\'',malignant
'\'<9.1-inf)\'','\'<6.4-7.3]\'','\'<6.4-7.3]\'','\'<3.7-4.6]\'','\'<4.6-5.5]\'','\'<4.6-5.5]\'',malignant
'\'<3.7-4.6]\'','\'<-inf-1.9]\'','\'<-inf-1.9]\'','\'<-inf-1.9]\'','\'<1.9-2.8]\'','\'<2.8-3.7]\'',benign
'\'<2.8-3.7]\'','\'<-inf-1.9]\'','\'<-inf-1.9]\'','\'<-inf-1.9]\'','\'<1.9-2.8]\'','\'<2.8-3.7]\'',benign
'\'<-inf-1.9]\'','\'<-inf-1.9]\'','\'<-inf-1.9]\'','\'<1.9-2.8]\'','\'<-inf-1.9]\'','\'<-inf-1.9]\'',benign
'\'<4.6-5.5]\'','\'<-inf-1.9]\'','\'<-inf-1.9]\'','\'<-inf-1.9]\'','\'<1.9-2.8]\'','\'<2.8-3.7]\'',benign
'\'<3.7-4.6]\'','\'<-inf-1.9]\'','\'<-inf-1.9]\'','\'<-inf-1.9]\'','\'<1.9-2.8]\'','\'<2.8-3.7]\'',benign
'\'<4.6-5.5]\'','\'<5.5-6.4]\'','\'<6.4-7.3]\'','\'<7.3-8.2]\'','\'<7.3-8.2]\'','\'<2.8-3.7]\'',malignant
'\'<9.1-inf)\'','\'<7.3-8.2]\'','\'<9.1-inf)\'','\'<9.1-inf)\'','\'<5.5-6.4]\'','\'<2.8-3.7]\'',malignant
'\'<2.8-3.7]\'','\'<-inf-1.9]\'','\'<-inf-1.9]\'','\'<-inf-1.9]\'','\'<1.9-2.8]\'','\'<2.8-3.7]\'',benign
'\'<-inf-1.9]\'','\'<-inf-1.9]\'','\'<-inf-1.9]\'','\'<1.9-2.8]\'','\'<-inf-1.9]\'','\'<-inf-1.9]\'',benign
'\'<2.8-3.7]\'','\'<-inf-1.9]\'','\'<-inf-1.9]\'','\'<-inf-1.9]\'','\'<1.9-2.8]\'','\'<-inf-1.9]\'',benign
'\'<-inf-1.9]\'','\'<-inf-1.9]\'','\'<-inf-1.9]\'','\'<-inf-1.9]\'','\'<1.9-2.8]\'','\'<2.8-3.7]\'',benign
'\'<-inf-1.9]\'','\'<-inf-1.9]\'','\'<-inf-1.9]\'','\'<-inf-1.9]\'','\'<1.9-2.8]\'','\'<1.9-2.8]\'',benign
'\'<5.5-6.4]\'','\'<9.1-inf)\'','\'<9.1-inf)\'','\'<9.1-inf)\'','\'<7.3-8.2]\'','\'<9.1-inf)\'',malignant
'\'<7.3-8.2]\'','\'<5.5-6.4]\'','\'<4.6-5.5]\'','\'<3.7-4.6]\'','\'<2.8-3.7]\'','\'<5.5-6.4]\'',malignant
'\'<4.6-5.5]\'','\'<7.3-8.2]\'','\'<6.4-7.3]\'','\'<6.4-7.3]\'','\'<9.1-inf)\'','\'<4.6-5.5]\'',malignant
'\'<1.9-2.8]\'','\'<-inf-1.9]\'','\'<-inf-1.9]\'','\'<-inf-1.9]\'','\'<1.9-2.8]\'','\'<2.8-3.7]\'',benign
'\'<4.6-5.5]\'','\'<9.1-inf)\'','\'<9.1-inf)\'','\'<2.8-3.7]\'','\'<7.3-8.2]\'','\'<4.6-5.5]\'',malignant
'\'<3.7-4.6]\'','\'<-inf-1.9]\'','\'<-inf-1.9]\'','\'<-inf-1.9]\'','\'<1.9-2.8]\'','\'<2.8-3.7]\'',benign
'\'<4.6-5.5]\'','\'<2.8-3.7]\'','\'<2.8-3.7]\'','\'<2.8-3.7]\'','\'<5.5-6.4]\'','\'<2.8-3.7]\'',malignant
'\'<-inf-1.9]\'','\'<-inf-1.9]\'','\'<-inf-1.9]\'','\'<-inf-1.9]\'','\'<-inf-1.9]\'','\'<2.8-3.7]\'',benign
'\'<-inf-1.9]\'','\'<-inf-1.9]\'','\'<-inf-1.9]\'','\'<-inf-1.9]\'','\'<1.9-2.8]\'','\'<-inf-1.9]\'',benign
'\'<5.5-6.4]\'','\'<-inf-1.9]\'','\'<-inf-1.9]\'','\'<-inf-1.9]\'','\'<1.9-2.8]\'','\'<2.8-3.7]\'',benign
'\'<4.6-5.5]\'','\'<7.3-8.2]\'','\'<7.3-8.2]\'','\'<7.3-8.2]\'','\'<4.6-5.5]\'','\'<6.4-7.3]\'',malignant
'\'<7.3-8.2]\'','\'<6.4-7.3]\'','\'<5.5-6.4]\'','\'<3.7-4.6]\'','\'<3.7-4.6]\'','\'<4.6-5.5]\'',malignant
'\'<1.9-2.8]\'','\'<-inf-1.9]\'','\'<-inf-1.9]\'','\'<-inf-1.9]\'','\'<-inf-1.9]\'','\'<2.8-3.7]\'',benign
'\'<-inf-1.9]\'','\'<4.6-5.5]\'','\'<7.3-8.2]\'','\'<5.5-6.4]\'','\'<4.6-5.5]\'','\'<6.4-7.3]\'',malignant
'\'<9.1-inf)\'','\'<4.6-5.5]\'','\'<5.5-6.4]\'','\'<9.1-inf)\'','\'<5.5-6.4]\'','\'<6.4-7.3]\'',malignant
'\'<4.6-5.5]\'','\'<7.3-8.2]\'','\'<3.7-4.6]\'','\'<9.1-inf)\'','\'<4.6-5.5]\'','\'<8.2-9.1]\'',malignant
'\'<-inf-1.9]\'','\'<1.9-2.8]\'','\'<2.8-3.7]\'','\'<-inf-1.9]\'','\'<1.9-2.8]\'','\'<2.8-3.7]\'',benign
'\'<9.1-inf)\'','\'<9.1-inf)\'','\'<9.1-inf)\'','\'<7.3-8.2]\'','\'<5.5-6.4]\'','\'<6.4-7.3]\'',malignant
'\'<6.4-7.3]\'','\'<4.6-5.5]\'','\'<9.1-inf)\'','\'<9.1-inf)\'','\'<9.1-inf)\'','\'<3.7-4.6]\'',malignant
'\'<4.6-5.5]\'','\'<-inf-1.9]\'','\'<-inf-1.9]\'','\'<-inf-1.9]\'','\'<1.9-2.8]\'','\'<1.9-2.8]\'',benign
'\'<-inf-1.9]\'','\'<-inf-1.9]\'','\'<-inf-1.9]\'','\'<-inf-1.9]\'','\'<1.9-2.8]\'','\'<2.8-3.7]\'',benign
'\'<2.8-3.7]\'','\'<-inf-1.9]\'','\'<-inf-1.9]\'','\'<-inf-1.9]\'','\'<1.9-2.8]\'','\'<2.8-3.7]\'',benign
'\'<3.7-4.6]\'','\'<-inf-1.9]\'','\'<-inf-1.9]\'','\'<-inf-1.9]\'','\'<1.9-2.8]\'','\'<2.8-3.7]\'',benign
'\'<7.3-8.2]\'','\'<3.7-4.6]\'','\'<3.7-4.6]\'','\'<4.6-5.5]\'','\'<3.7-4.6]\'','\'<6.4-7.3]\'',benign
'\'<4.6-5.5]\'','\'<-inf-1.9]\'','\'<-inf-1.9]\'','\'<3.7-4.6]\'','\'<1.9-2.8]\'','\'<2.8-3.7]\'',benign
'\'<-inf-1.9]\'','\'<-inf-1.9]\'','\'<-inf-1.9]\'','\'<-inf-1.9]\'','\'<1.9-2.8]\'','\'<-inf-1.9]\'',benign
'\'<2.8-3.7]\'','\'<-inf-1.9]\'','\'<-inf-1.9]\'','\'<-inf-1.9]\'','\'<1.9-2.8]\'','\'<1.9-2.8]\'',benign
'\'<8.2-9.1]\'','\'<6.4-7.3]\'','\'<6.4-7.3]\'','\'<4.6-5.5]\'','\'<4.6-5.5]\'','\'<6.4-7.3]\'',malignant
'\'<9.1-inf)\'','\'<7.3-8.2]\'','\'<7.3-8.2]\'','\'<3.7-4.6]\'','\'<9.1-inf)\'','\'<7.3-8.2]\'',malignant
'\'<-inf-1.9]\'','\'<-inf-1.9]\'','\'<-inf-1.9]\'','\'<-inf-1.9]\'','\'<1.9-2.8]\'','\'<2.8-3.7]\'',benign
'\'<4.6-5.5]\'','\'<-inf-1.9]\'','\'<-inf-1.9]\'','\'<-inf-1.9]\'','\'<1.9-2.8]\'','\'<2.8-3.7]\'',benign
'\'<-inf-1.9]\'','\'<-inf-1.9]\'','\'<-inf-1.9]\'','\'<-inf-1.9]\'','\'<1.9-2.8]\'','\'<2.8-3.7]\'',benign
'\'<4.6-5.5]\'','\'<9.1-inf)\'','\'<9.1-inf)\'','\'<8.2-9.1]\'','\'<5.5-6.4]\'','\'<6.4-7.3]\'',malignant
'\'<9.1-inf)\'','\'<9.1-inf)\'','\'<8.2-9.1]\'','\'<2.8-3.7]\'','\'<6.4-7.3]\'','\'<2.8-3.7]\'',malignant
'\'<-inf-1.9]\'','\'<-inf-1.9]\'','\'<-inf-1.9]\'','\'<-inf-1.9]\'','\'<-inf-1.9]\'','\'<2.8-3.7]\'',benign
'\'<-inf-1.9]\'','\'<-inf-1.9]\'','\'<-inf-1.9]\'','\'<-inf-1.9]\'','\'<-inf-1.9]\'','\'<2.8-3.7]\'',benign
'\'<4.6-5.5]\'','\'<-inf-1.9]\'','\'<-inf-1.9]\'','\'<-inf-1.9]\'','\'<-inf-1.9]\'','\'<2.8-3.7]\'',benign
'\'<7.3-8.2]\'','\'<9.1-inf)\'','\'<9.1-inf)\'','\'<9.1-inf)\'','\'<4.6-5.5]\'','\'<7.3-8.2]\'',malignant
'\'<7.3-8.2]\'','\'<9.1-inf)\'','\'<7.3-8.2]\'','\'<7.3-8.2]\'','\'<3.7-4.6]\'','\'<6.4-7.3]\'',malignant
'\'<-inf-1.9]\'','\'<-inf-1.9]\'','\'<-inf-1.9]\'','\'<-inf-1.9]\'','\'<1.9-2.8]\'','\'<2.8-3.7]\'',benign
'\'<9.1-inf)\'','\'<9.1-inf)\'','\'<9.1-inf)\'','\'<9.1-inf)\'','\'<6.4-7.3]\'','\'<6.4-7.3]\'',malignant
'\'<9.1-inf)\'','\'<9.1-inf)\'','\'<9.1-inf)\'','\'<9.1-inf)\'','\'<2.8-3.7]\'','\'<9.1-inf)\'',malignant
'\'<7.3-8.2]\'','\'<6.4-7.3]\'','\'<7.3-8.2]\'','\'<6.4-7.3]\'','\'<4.6-5.5]\'','\'<4.6-5.5]\'',malignant
'\'<-inf-1.9]\'','\'<-inf-1.9]\'','\'<-inf-1.9]\'','\'<-inf-1.9]\'','\'<1.9-2.8]\'','\'<1.9-2.8]\'',benign
'\'<-inf-1.9]\'','\'<-inf-1.9]\'','\'<-inf-1.9]\'','\'<-inf-1.9]\'','\'<1.9-2.8]\'','\'<2.8-3.7]\'',benign
'\'<5.5-6.4]\'','\'<9.1-inf)\'','\'<6.4-7.3]\'','\'<6.4-7.3]\'','\'<5.5-6.4]\'','\'<7.3-8.2]\'',malignant
'\'<5.5-6.4]\'','\'<-inf-1.9]\'','\'<2.8-3.7]\'','\'<-inf-1.9]\'','\'<1.9-2.8]\'','\'<2.8-3.7]\'',benign
'\'<-inf-1.9]\'','\'<-inf-1.9]\'','\'<-inf-1.9]\'','\'<1.9-2.8]\'','\'<1.9-2.8]\'','\'<2.8-3.7]\'',benign
'\'<9.1-inf)\'','\'<5.5-6.4]\'','\'<3.7-4.6]\'','\'<2.8-3.7]\'','\'<9.1-inf)\'','\'<8.2-9.1]\'',malignant
'\'<3.7-4.6]\'','\'<-inf-1.9]\'','\'<-inf-1.9]\'','\'<2.8-3.7]\'','\'<-inf-1.9]\'','\'<1.9-2.8]\'',malignant
'\'<6.4-7.3]\'','\'<4.6-5.5]\'','\'<5.5-6.4]\'','\'<2.8-3.7]\'','\'<2.8-3.7]\'','\'<6.4-7.3]\'',malignant
'\'<9.1-inf)\'','\'<4.6-5.5]\'','\'<4.6-5.5]\'','\'<5.5-6.4]\'','\'<2.8-3.7]\'','\'<6.4-7.3]\'',malignant
'\'<-inf-1.9]\'','\'<-inf-1.9]\'','\'<-inf-1.9]\'','\'<-inf-1.9]\'','\'<1.9-2.8]\'','\'<1.9-2.8]\'',benign
'\'<9.1-inf)\'','\'<4.6-5.5]\'','\'<6.4-7.3]\'','\'<3.7-4.6]\'','\'<3.7-4.6]\'','\'<7.3-8.2]\'',malignant
'\'<7.3-8.2]\'','\'<8.2-9.1]\'','\'<8.2-9.1]\'','\'<4.6-5.5]\'','\'<2.8-3.7]\'','\'<6.4-7.3]\'',malignant
'\'<-inf-1.9]\'','\'<-inf-1.9]\'','\'<-inf-1.9]\'','\'<-inf-1.9]\'','\'<-inf-1.9]\'','\'<2.8-3.7]\'',benign
'\'<9.1-inf)\'','\'<9.1-inf)\'','\'<9.1-inf)\'','\'<2.8-3.7]\'','\'<9.1-inf)\'','\'<8.2-9.1]\'',malignant
'\'<6.4-7.3]\'','\'<3.7-4.6]\'','\'<6.4-7.3]\'','\'<3.7-4.6]\'','\'<2.8-3.7]\'','\'<6.4-7.3]\'',malignant
'\'<5.5-6.4]\'','\'<7.3-8.2]\'','\'<6.4-7.3]\'','\'<4.6-5.5]\'','\'<5.5-6.4]\'','\'<7.3-8.2]\'',malignant
'\'<7.3-8.2]\'','\'<3.7-4.6]\'','\'<5.5-6.4]\'','\'<2.8-3.7]\'','\'<2.8-3.7]\'','\'<3.7-4.6]\'',benign
'\'<9.1-inf)\'','\'<3.7-4.6]\'','\'<4.6-5.5]\'','\'<4.6-5.5]\'','\'<4.6-5.5]\'','\'<3.7-4.6]\'',malignant
'\'<2.8-3.7]\'','\'<2.8-3.7]\'','\'<1.9-2.8]\'','\'<-inf-1.9]\'','\'<2.8-3.7]\'','\'<2.8-3.7]\'',benign
'\'<2.8-3.7]\'','\'<-inf-1.9]\'','\'<3.7-4.6]\'','\'<-inf-1.9]\'','\'<1.9-2.8]\'','\'<2.8-3.7]\'',benign
'\'<9.1-inf)\'','\'<7.3-8.2]\'','\'<7.3-8.2]\'','\'<1.9-2.8]\'','\'<7.3-8.2]\'','\'<3.7-4.6]\'',malignant
'\'<8.2-9.1]\'','\'<7.3-8.2]\'','\'<7.3-8.2]\'','\'<4.6-5.5]\'','\'<5.5-6.4]\'','\'<3.7-4.6]\'',malignant
'\'<7.3-8.2]\'','\'<9.1-inf)\'','\'<9.1-inf)\'','\'<7.3-8.2]\'','\'<5.5-6.4]\'','\'<2.8-3.7]\'',malignant
'\'<9.1-inf)\'','\'<3.7-4.6]\'','\'<2.8-3.7]\'','\'<1.9-2.8]\'','\'<2.8-3.7]\'','\'<4.6-5.5]\'',malignant
'\'<4.6-5.5]\'','\'<-inf-1.9]\'','\'<2.8-3.7]\'','\'<2.8-3.7]\'','\'<1.9-2.8]\'','\'<1.9-2.8]\'',benign
'\'<2.8-3.7]\'','\'<-inf-1.9]\'','\'<-inf-1.9]\'','\'<2.8-3.7]\'','\'<-inf-1.9]\'','\'<2.8-3.7]\'',benign
'\'<1.9-2.8]\'','\'<-inf-1.9]\'','\'<-inf-1.9]\'','\'<-inf-1.9]\'','\'<1.9-2.8]\'','\'<2.8-3.7]\'',benign
'\'<-inf-1.9]\'','\'<-inf-1.9]\'','\'<-inf-1.9]\'','\'<-inf-1.9]\'','\'<1.9-2.8]\'','\'<4.6-5.5]\'',benign
'\'<-inf-1.9]\'','\'<-inf-1.9]\'','\'<-inf-1.9]\'','\'<-inf-1.9]\'','\'<1.9-2.8]\'','\'<2.8-3.7]\'',benign
'\'<4.6-5.5]\'','\'<-inf-1.9]\'','\'<-inf-1.9]\'','\'<1.9-2.8]\'','\'<1.9-2.8]\'','\'<2.8-3.7]\'',benign
'\'<7.3-8.2]\'','\'<9.1-inf)\'','\'<9.1-inf)\'','\'<7.3-8.2]\'','\'<4.6-5.5]\'','\'<6.4-7.3]\'',malignant
'\'<7.3-8.2]\'','\'<3.7-4.6]\'','\'<3.7-4.6]\'','\'<-inf-1.9]\'','\'<1.9-2.8]\'','\'<2.8-3.7]\'',malignant
'\'<3.7-4.6]\'','\'<-inf-1.9]\'','\'<-inf-1.9]\'','\'<-inf-1.9]\'','\'<1.9-2.8]\'','\'<2.8-3.7]\'',benign
'\'<2.8-3.7]\'','\'<-inf-1.9]\'','\'<-inf-1.9]\'','\'<-inf-1.9]\'','\'<1.9-2.8]\'','\'<2.8-3.7]\'',benign
'\'<-inf-1.9]\'','\'<1.9-2.8]\'','\'<1.9-2.8]\'','\'<-inf-1.9]\'','\'<1.9-2.8]\'','\'<-inf-1.9]\'',benign
'\'<9.1-inf)\'','\'<3.7-4.6]\'','\'<3.7-4.6]\'','\'<9.1-inf)\'','\'<1.9-2.8]\'','\'<4.6-5.5]\'',malignant
'\'<5.5-6.4]\'','\'<2.8-3.7]\'','\'<2.8-3.7]\'','\'<4.6-5.5]\'','\'<2.8-3.7]\'','\'<2.8-3.7]\'',benign
'\'<5.5-6.4]\'','\'<9.1-inf)\'','\'<9.1-inf)\'','\'<1.9-2.8]\'','\'<7.3-8.2]\'','\'<6.4-7.3]\'',malignant
'\'<8.2-9.1]\'','\'<9.1-inf)\'','\'<9.1-inf)\'','\'<-inf-1.9]\'','\'<9.1-inf)\'','\'<2.8-3.7]\'',malignant
'\'<4.6-5.5]\'','\'<5.5-6.4]\'','\'<5.5-6.4]\'','\'<1.9-2.8]\'','\'<3.7-4.6]\'','\'<2.8-3.7]\'',malignant
'\'<2.8-3.7]\'','\'<-inf-1.9]\'','\'<-inf-1.9]\'','\'<-inf-1.9]\'','\'<1.9-2.8]\'','\'<-inf-1.9]\'',benign
'\'<2.8-3.7]\'','\'<-inf-1.9]\'','\'<-inf-1.9]\'','\'<-inf-1.9]\'','\'<1.9-2.8]\'','\'<1.9-2.8]\'',benign
'\'<2.8-3.7]\'','\'<-inf-1.9]\'','\'<-inf-1.9]\'','\'<-inf-1.9]\'','\'<1.9-2.8]\'','\'<2.8-3.7]\'',benign
'\'<4.6-5.5]\'','\'<6.4-7.3]\'','\'<6.4-7.3]\'','\'<-inf-1.9]\'','\'<4.6-5.5]\'','\'<2.8-3.7]\'',benign
'\'<9.1-inf)\'','\'<4.6-5.5]\'','\'<7.3-8.2]\'','\'<9.1-inf)\'','\'<2.8-3.7]\'','\'<4.6-5.5]\'',malignant
'\'<4.6-5.5]\'','\'<9.1-inf)\'','\'<9.1-inf)\'','\'<5.5-6.4]\'','\'<9.1-inf)\'','\'<9.1-inf)\'',malignant
'\'<7.3-8.2]\'','\'<7.3-8.2]\'','\'<8.2-9.1]\'','\'<3.7-4.6]\'','\'<4.6-5.5]\'','\'<6.4-7.3]\'',malignant
'\'<9.1-inf)\'','\'<3.7-4.6]\'','\'<3.7-4.6]\'','\'<9.1-inf)\'','\'<5.5-6.4]\'','\'<4.6-5.5]\'',malignant
'\'<6.4-7.3]\'','\'<8.2-9.1]\'','\'<3.7-4.6]\'','\'<9.1-inf)\'','\'<9.1-inf)\'','\'<4.6-5.5]\'',malignant
'\'<4.6-5.5]\'','\'<-inf-1.9]\'','\'<3.7-4.6]\'','\'<-inf-1.9]\'','\'<1.9-2.8]\'','\'<2.8-3.7]\'',benign
'\'<9.1-inf)\'','\'<9.1-inf)\'','\'<5.5-6.4]\'','\'<2.8-3.7]\'','\'<2.8-3.7]\'','\'<3.7-4.6]\'',malignant
'\'<2.8-3.7]\'','\'<2.8-3.7]\'','\'<4.6-5.5]\'','\'<1.9-2.8]\'','\'<2.8-3.7]\'','\'<6.4-7.3]\'',malignant
'\'<9.1-inf)\'','\'<7.3-8.2]\'','\'<7.3-8.2]\'','\'<1.9-2.8]\'','\'<2.8-3.7]\'','\'<7.3-8.2]\'',malignant
'\'<-inf-1.9]\'','\'<-inf-1.9]\'','\'<-inf-1.9]\'','\'<-inf-1.9]\'','\'<1.9-2.8]\'','\'<2.8-3.7]\'',benign
'\'<7.3-8.2]\'','\'<3.7-4.6]\'','\'<6.4-7.3]\'','\'<-inf-1.9]\'','\'<2.8-3.7]\'','\'<2.8-3.7]\'',malignant
'\'<4.6-5.5]\'','\'<-inf-1.9]\'','\'<-inf-1.9]\'','\'<-inf-1.9]\'','\'<1.9-2.8]\'','\'<2.8-3.7]\'',benign
'\'<2.8-3.7]\'','\'<2.8-3.7]\'','\'<4.6-5.5]\'','\'<1.9-2.8]\'','\'<2.8-3.7]\'','\'<6.4-7.3]\'',malignant
'\'<6.4-7.3]\'','\'<1.9-2.8]\'','\'<3.7-4.6]\'','\'<-inf-1.9]\'','\'<2.8-3.7]\'','\'<2.8-3.7]\'',malignant
'\'<2.8-3.7]\'','\'<-inf-1.9]\'','\'<-inf-1.9]\'','\'<-inf-1.9]\'','\'<1.9-2.8]\'','\'<2.8-3.7]\'',benign
'\'<2.8-3.7]\'','\'<-inf-1.9]\'','\'<2.8-3.7]\'','\'<-inf-1.9]\'','\'<1.9-2.8]\'','\'<1.9-2.8]\'',benign
'\'<2.8-3.7]\'','\'<-inf-1.9]\'','\'<-inf-1.9]\'','\'<-inf-1.9]\'','\'<1.9-2.8]\'','\'<1.9-2.8]\'',benign
'\'<-inf-1.9]\'','\'<-inf-1.9]\'','\'<-inf-1.9]\'','\'<-inf-1.9]\'','\'<1.9-2.8]\'','\'<1.9-2.8]\'',benign
'\'<-inf-1.9]\'','\'<-inf-1.9]\'','\'<-inf-1.9]\'','\'<-inf-1.9]\'','\'<1.9-2.8]\'','\'<2.8-3.7]\'',benign
'\'<9.1-inf)\'','\'<4.6-5.5]\'','\'<6.4-7.3]\'','\'<2.8-3.7]\'','\'<2.8-3.7]\'','\'<2.8-3.7]\'',malignant
'\'<2.8-3.7]\'','\'<-inf-1.9]\'','\'<-inf-1.9]\'','\'<-inf-1.9]\'','\'<1.9-2.8]\'','\'<2.8-3.7]\'',benign
'\'<1.9-2.8]\'','\'<-inf-1.9]\'','\'<-inf-1.9]\'','\'<1.9-2.8]\'','\'<1.9-2.8]\'','\'<2.8-3.7]\'',benign
'\'<-inf-1.9]\'','\'<3.7-4.6]\'','\'<2.8-3.7]\'','\'<9.1-inf)\'','\'<3.7-4.6]\'','\'<4.6-5.5]\'',malignant
'\'<9.1-inf)\'','\'<3.7-4.6]\'','\'<5.5-6.4]\'','\'<-inf-1.9]\'','\'<1.9-2.8]\'','\'<4.6-5.5]\'',malignant
'\'<6.4-7.3]\'','\'<3.7-4.6]\'','\'<4.6-5.5]\'','\'<9.1-inf)\'','\'<1.9-2.8]\'','\'<2.8-3.7]\'',malignant
'\'<7.3-8.2]\'','\'<9.1-inf)\'','\'<9.1-inf)\'','\'<9.1-inf)\'','\'<7.3-8.2]\'','\'<9.1-inf)\'',malignant
'\'<9.1-inf)\'','\'<9.1-inf)\'','\'<9.1-inf)\'','\'<9.1-inf)\'','\'<9.1-inf)\'','\'<3.7-4.6]\'',malignant
'\'<2.8-3.7]\'','\'<-inf-1.9]\'','\'<-inf-1.9]\'','\'<-inf-1.9]\'','\'<2.8-3.7]\'','\'<1.9-2.8]\'',benign
'\'<5.5-6.4]\'','\'<-inf-1.9]\'','\'<2.8-3.7]\'','\'<-inf-1.9]\'','\'<3.7-4.6]\'','\'<4.6-5.5]\'',malignant
'\'<4.6-5.5]\'','\'<5.5-6.4]\'','\'<5.5-6.4]\'','\'<7.3-8.2]\'','\'<5.5-6.4]\'','\'<3.7-4.6]\'',malignant
'\'<-inf-1.9]\'','\'<-inf-1.9]\'','\'<-inf-1.9]\'','\'<-inf-1.9]\'','\'<1.9-2.8]\'','\'<-inf-1.9]\'',benign
'\'<-inf-1.9]\'','\'<-inf-1.9]\'','\'<-inf-1.9]\'','\'<-inf-1.9]\'','\'<1.9-2.8]\'','\'<2.8-3.7]\'',benign
'\'<7.3-8.2]\'','\'<7.3-8.2]\'','\'<7.3-8.2]\'','\'<-inf-1.9]\'','\'<1.9-2.8]\'','\'<5.5-6.4]\'',malignant
'\'<9.1-inf)\'','\'<3.7-4.6]\'','\'<3.7-4.6]\'','\'<5.5-6.4]\'','\'<1.9-2.8]\'','\'<1.9-2.8]\'',malignant
'\'<-inf-1.9]\'','\'<-inf-1.9]\'','\'<-inf-1.9]\'','\'<-inf-1.9]\'','\'<1.9-2.8]\'','\'<1.9-2.8]\'',benign
'\'<4.6-5.5]\'','\'<4.6-5.5]\'','\'<6.4-7.3]\'','\'<7.3-8.2]\'','\'<5.5-6.4]\'','\'<6.4-7.3]\'',malignant
'\'<4.6-5.5]\'','\'<2.8-3.7]\'','\'<3.7-4.6]\'','\'<2.8-3.7]\'','\'<3.7-4.6]\'','\'<3.7-4.6]\'',benign
'\'<4.6-5.5]\'','\'<3.7-4.6]\'','\'<2.8-3.7]\'','\'<-inf-1.9]\'','\'<1.9-2.8]\'','\'<1.9-2.8]\'',benign
'\'<7.3-8.2]\'','\'<1.9-2.8]\'','\'<-inf-1.9]\'','\'<-inf-1.9]\'','\'<4.6-5.5]\'','\'<-inf-1.9]\'',benign
'\'<8.2-9.1]\'','\'<-inf-1.9]\'','\'<1.9-2.8]\'','\'<5.5-6.4]\'','\'<3.7-4.6]\'','\'<6.4-7.3]\'',malignant
'\'<7.3-8.2]\'','\'<3.7-4.6]\'','\'<9.1-inf)\'','\'<4.6-5.5]\'','\'<3.7-4.6]\'','\'<6.4-7.3]\'',malignant
'\'<-inf-1.9]\'','\'<-inf-1.9]\'','\'<-inf-1.9]\'','\'<-inf-1.9]\'','\'<1.9-2.8]\'','\'<2.8-3.7]\'',benign
'\'<9.1-inf)\'','\'<9.1-inf)\'','\'<9.1-inf)\'','\'<6.4-7.3]\'','\'<8.2-9.1]\'','\'<6.4-7.3]\'',malignant
'\'<-inf-1.9]\'','\'<-inf-1.9]\'','\'<-inf-1.9]\'','\'<-inf-1.9]\'','\'<1.9-2.8]\'','\'<2.8-3.7]\'',benign
'\'<7.3-8.2]\'','\'<2.8-3.7]\'','\'<3.7-4.6]\'','\'<8.2-9.1]\'','\'<2.8-3.7]\'','\'<2.8-3.7]\'',malignant
'\'<9.1-inf)\'','\'<7.3-8.2]\'','\'<3.7-4.6]\'','\'<3.7-4.6]\'','\'<3.7-4.6]\'','\'<2.8-3.7]\'',malignant
'\'<-inf-1.9]\'','\'<-inf-1.9]\'','\'<-inf-1.9]\'','\'<-inf-1.9]\'','\'<1.9-2.8]\'','\'<2.8-3.7]\'',benign
'\'<-inf-1.9]\'','\'<-inf-1.9]\'','\'<-inf-1.9]\'','\'<-inf-1.9]\'','\'<1.9-2.8]\'','\'<2.8-3.7]\'',benign
'\'<6.4-7.3]\'','\'<7.3-8.2]\'','\'<6.4-7.3]\'','\'<5.5-6.4]\'','\'<3.7-4.6]\'','\'<7.3-8.2]\'',malignant
'\'<2.8-3.7]\'','\'<-inf-1.9]\'','\'<-inf-1.9]\'','\'<-inf-1.9]\'','\'<1.9-2.8]\'','\'<4.6-5.5]\'',benign
'\'<1.9-2.8]\'','\'<-inf-1.9]\'','\'<-inf-1.9]\'','\'<-inf-1.9]\'','\'<2.8-3.7]\'','\'<1.9-2.8]\'',benign
'\'<-inf-1.9]\'','\'<-inf-1.9]\'','\'<-inf-1.9]\'','\'<-inf-1.9]\'','\'<1.9-2.8]\'','\'<-inf-1.9]\'',benign
'\'<7.3-8.2]\'','\'<5.5-6.4]\'','\'<3.7-4.6]\'','\'<9.1-inf)\'','\'<9.1-inf)\'','\'<2.8-3.7]\'',malignant
'\'<-inf-1.9]\'','\'<-inf-1.9]\'','\'<-inf-1.9]\'','\'<-inf-1.9]\'','\'<1.9-2.8]\'','\'<-inf-1.9]\'',benign
'\'<-inf-1.9]\'','\'<-inf-1.9]\'','\'<-inf-1.9]\'','\'<-inf-1.9]\'','\'<-inf-1.9]\'','\'<1.9-2.8]\'',benign
'\'<3.7-4.6]\'','\'<5.5-6.4]\'','\'<4.6-5.5]\'','\'<5.5-6.4]\'','\'<6.4-7.3]\'','\'<3.7-4.6]\'',benign
'\'<4.6-5.5]\'','\'<4.6-5.5]\'','\'<4.6-5.5]\'','\'<1.9-2.8]\'','\'<4.6-5.5]\'','\'<3.7-4.6]\'',malignant
'\'<5.5-6.4]\'','\'<7.3-8.2]\'','\'<6.4-7.3]\'','\'<7.3-8.2]\'','\'<5.5-6.4]\'','\'<7.3-8.2]\'',malignant
'\'<-inf-1.9]\'','\'<-inf-1.9]\'','\'<-inf-1.9]\'','\'<-inf-1.9]\'','\'<4.6-5.5]\'','\'<2.8-3.7]\'',benign
'\'<3.7-4.6]\'','\'<3.7-4.6]\'','\'<3.7-4.6]\'','\'<3.7-4.6]\'','\'<5.5-6.4]\'','\'<6.4-7.3]\'',benign
'\'<6.4-7.3]\'','\'<5.5-6.4]\'','\'<2.8-3.7]\'','\'<1.9-2.8]\'','\'<4.6-5.5]\'','\'<6.4-7.3]\'',malignant
'\'<2.8-3.7]\'','\'<-inf-1.9]\'','\'<-inf-1.9]\'','\'<-inf-1.9]\'','\'<1.9-2.8]\'','\'<2.8-3.7]\'',benign
'\'<2.8-3.7]\'','\'<-inf-1.9]\'','\'<-inf-1.9]\'','\'<-inf-1.9]\'','\'<1.9-2.8]\'','\'<2.8-3.7]\'',benign
'\'<4.6-5.5]\'','\'<3.7-4.6]\'','\'<5.5-6.4]\'','\'<9.1-inf)\'','\'<1.9-2.8]\'','\'<3.7-4.6]\'',malignant
'\'<-inf-1.9]\'','\'<-inf-1.9]\'','\'<-inf-1.9]\'','\'<-inf-1.9]\'','\'<1.9-2.8]\'','\'<2.8-3.7]\'',benign
'\'<2.8-3.7]\'','\'<1.9-2.8]\'','\'<1.9-2.8]\'','\'<-inf-1.9]\'','\'<1.9-2.8]\'','\'<1.9-2.8]\'',benign
'\'<9.1-inf)\'','\'<-inf-1.9]\'','\'<-inf-1.9]\'','\'<-inf-1.9]\'','\'<1.9-2.8]\'','\'<4.6-5.5]\'',malignant
'\'<-inf-1.9]\'','\'<-inf-1.9]\'','\'<-inf-1.9]\'','\'<-inf-1.9]\'','\'<1.9-2.8]\'','\'<1.9-2.8]\'',benign
'\'<7.3-8.2]\'','\'<9.1-inf)\'','\'<2.8-3.7]\'','\'<1.9-2.8]\'','\'<5.5-6.4]\'','\'<2.8-3.7]\'',malignant
'\'<9.1-inf)\'','\'<3.7-4.6]\'','\'<5.5-6.4]\'','\'<3.7-4.6]\'','\'<4.6-5.5]\'','\'<6.4-7.3]\'',malignant
'\'<9.1-inf)\'','\'<3.7-4.6]\'','\'<6.4-7.3]\'','\'<1.9-2.8]\'','\'<1.9-2.8]\'','\'<5.5-6.4]\'',malignant
'\'<4.6-5.5]\'','\'<-inf-1.9]\'','\'<-inf-1.9]\'','\'<-inf-1.9]\'','\'<1.9-2.8]\'','\'<2.8-3.7]\'',benign
'\'<4.6-5.5]\'','\'<1.9-2.8]\'','\'<1.9-2.8]\'','\'<1.9-2.8]\'','\'<1.9-2.8]\'','\'<1.9-2.8]\'',benign
'\'<4.6-5.5]\'','\'<3.7-4.6]\'','\'<5.5-6.4]\'','\'<5.5-6.4]\'','\'<3.7-4.6]\'','\'<3.7-4.6]\'',malignant
'\'<7.3-8.2]\'','\'<5.5-6.4]\'','\'<6.4-7.3]\'','\'<2.8-3.7]\'','\'<2.8-3.7]\'','\'<2.8-3.7]\'',malignant
'\'<-inf-1.9]\'','\'<-inf-1.9]\'','\'<-inf-1.9]\'','\'<-inf-1.9]\'','\'<1.9-2.8]\'','\'<-inf-1.9]\'',benign
'\'<5.5-6.4]\'','\'<4.6-5.5]\'','\'<4.6-5.5]\'','\'<7.3-8.2]\'','\'<3.7-4.6]\'','\'<2.8-3.7]\'',malignant
'\'<-inf-1.9]\'','\'<-inf-1.9]\'','\'<-inf-1.9]\'','\'<-inf-1.9]\'','\'<1.9-2.8]\'','\'<2.8-3.7]\'',benign
'\'<-inf-1.9]\'','\'<-inf-1.9]\'','\'<-inf-1.9]\'','\'<-inf-1.9]\'','\'<-inf-1.9]\'','\'<1.9-2.8]\'',benign
'\'<7.3-8.2]\'','\'<4.6-5.5]\'','\'<4.6-5.5]\'','\'<4.6-5.5]\'','\'<1.9-2.8]\'','\'<3.7-4.6]\'',malignant
'\'<9.1-inf)\'','\'<2.8-3.7]\'','\'<2.8-3.7]\'','\'<-inf-1.9]\'','\'<1.9-2.8]\'','\'<6.4-7.3]\'',malignant
'\'<-inf-1.9]\'','\'<-inf-1.9]\'','\'<-inf-1.9]\'','\'<-inf-1.9]\'','\'<1.9-2.8]\'','\'<2.8-3.7]\'',benign
'\'<1.9-2.8]\'','\'<-inf-1.9]\'','\'<-inf-1.9]\'','\'<-inf-1.9]\'','\'<1.9-2.8]\'','\'<-inf-1.9]\'',benign
'\'<-inf-1.9]\'','\'<-inf-1.9]\'','\'<-inf-1.9]\'','\'<-inf-1.9]\'','\'<1.9-2.8]\'','\'<-inf-1.9]\'',benign
'\'<6.4-7.3]\'','\'<5.5-6.4]\'','\'<3.7-4.6]\'','\'<7.3-8.2]\'','\'<9.1-inf)\'','\'<8.2-9.1]\'',malignant
'\'<-inf-1.9]\'','\'<-inf-1.9]\'','\'<-inf-1.9]\'','\'<-inf-1.9]\'','\'<1.9-2.8]\'','\'<-inf-1.9]\'',benign
'\'<4.6-5.5]\'','\'<1.9-2.8]\'','\'<1.9-2.8]\'','\'<1.9-2.8]\'','\'<2.8-3.7]\'','\'<-inf-1.9]\'',benign
'\'<-inf-1.9]\'','\'<-inf-1.9]\'','\'<-inf-1.9]\'','\'<-inf-1.9]\'','\'<-inf-1.9]\'','\'<-inf-1.9]\'',benign
'\'<2.8-3.7]\'','\'<3.7-4.6]\'','\'<3.7-4.6]\'','\'<9.1-inf)\'','\'<4.6-5.5]\'','\'<2.8-3.7]\'',malignant
'\'<3.7-4.6]\'','\'<1.9-2.8]\'','\'<2.8-3.7]\'','\'<4.6-5.5]\'','\'<2.8-3.7]\'','\'<6.4-7.3]\'',malignant
'\'<4.6-5.5]\'','\'<-inf-1.9]\'','\'<-inf-1.9]\'','\'<2.8-3.7]\'','\'<1.9-2.8]\'','\'<-inf-1.9]\'',benign
'\'<1.9-2.8]\'','\'<-inf-1.9]\'','\'<-inf-1.9]\'','\'<-inf-1.9]\'','\'<1.9-2.8]\'','\'<2.8-3.7]\'',benign
'\'<2.8-3.7]\'','\'<3.7-4.6]\'','\'<4.6-5.5]\'','\'<2.8-3.7]\'','\'<6.4-7.3]\'','\'<3.7-4.6]\'',benign
'\'<1.9-2.8]\'','\'<6.4-7.3]\'','\'<9.1-inf)\'','\'<9.1-inf)\'','\'<6.4-7.3]\'','\'<3.7-4.6]\'',malignant
'\'<-inf-1.9]\'','\'<-inf-1.9]\'','\'<-inf-1.9]\'','\'<-inf-1.9]\'','\'<1.9-2.8]\'','\'<1.9-2.8]\'',benign
'\'<3.7-4.6]\'','\'<-inf-1.9]\'','\'<-inf-1.9]\'','\'<-inf-1.9]\'','\'<2.8-3.7]\'','\'<1.9-2.8]\'',benign
'\'<4.6-5.5]\'','\'<2.8-3.7]\'','\'<2.8-3.7]\'','\'<-inf-1.9]\'','\'<2.8-3.7]\'','\'<2.8-3.7]\'',malignant
'\'<7.3-8.2]\'','\'<9.1-inf)\'','\'<9.1-inf)\'','\'<6.4-7.3]\'','\'<9.1-inf)\'','\'<6.4-7.3]\'',malignant
'\'<7.3-8.2]\'','\'<9.1-inf)\'','\'<4.6-5.5]\'','\'<2.8-3.7]\'','\'<7.3-8.2]\'','\'<3.7-4.6]\'',malignant
'\'<9.1-inf)\'','\'<2.8-3.7]\'','\'<4.6-5.5]\'','\'<3.7-4.6]\'','\'<2.8-3.7]\'','\'<2.8-3.7]\'',malignant
'\'<5.5-6.4]\'','\'<9.1-inf)\'','\'<9.1-inf)\'','\'<9.1-inf)\'','\'<9.1-inf)\'','\'<7.3-8.2]\'',malignant
'\'<2.8-3.7]\'','\'<9.1-inf)\'','\'<2.8-3.7]\'','\'<9.1-inf)\'','\'<5.5-6.4]\'','\'<4.6-5.5]\'',malignant
'\'<2.8-3.7]\'','\'<1.9-2.8]\'','\'<1.9-2.8]\'','\'<-inf-1.9]\'','\'<3.7-4.6]\'','\'<1.9-2.8]\'',benign
'\'<3.7-4.6]\'','\'<3.7-4.6]\'','\'<3.7-4.6]\'','\'<1.9-2.8]\'','\'<1.9-2.8]\'','\'<1.9-2.8]\'',benign
'\'<1.9-2.8]\'','\'<-inf-1.9]\'','\'<-inf-1.9]\'','\'<-inf-1.9]\'','\'<1.9-2.8]\'','\'<2.8-3.7]\'',benign
'\'<1.9-2.8]\'','\'<-inf-1.9]\'','\'<-inf-1.9]\'','\'<-inf-1.9]\'','\'<1.9-2.8]\'','\'<1.9-2.8]\'',benign
'\'<5.5-6.4]\'','\'<9.1-inf)\'','\'<9.1-inf)\'','\'<9.1-inf)\'','\'<7.3-8.2]\'','\'<6.4-7.3]\'',malignant
'\'<4.6-5.5]\'','\'<7.3-8.2]\'','\'<7.3-8.2]\'','\'<9.1-inf)\'','\'<4.6-5.5]\'','\'<7.3-8.2]\'',malignant
'\'<-inf-1.9]\'','\'<-inf-1.9]\'','\'<2.8-3.7]\'','\'<-inf-1.9]\'','\'<1.9-2.8]\'','\'<-inf-1.9]\'',benign
'\'<-inf-1.9]\'','\'<-inf-1.9]\'','\'<2.8-3.7]\'','\'<-inf-1.9]\'','\'<-inf-1.9]\'','\'<1.9-2.8]\'',benign
'\'<3.7-4.6]\'','\'<2.8-3.7]\'','\'<1.9-2.8]\'','\'<-inf-1.9]\'','\'<2.8-3.7]\'','\'<1.9-2.8]\'',benign
'\'<-inf-1.9]\'','\'<-inf-1.9]\'','\'<2.8-3.7]\'','\'<-inf-1.9]\'','\'<1.9-2.8]\'','\'<-inf-1.9]\'',benign
'\'<3.7-4.6]\'','\'<-inf-1.9]\'','\'<1.9-2.8]\'','\'<-inf-1.9]\'','\'<1.9-2.8]\'','\'<1.9-2.8]\'',benign
'\'<4.6-5.5]\'','\'<-inf-1.9]\'','\'<-inf-1.9]\'','\'<1.9-2.8]\'','\'<1.9-2.8]\'','\'<1.9-2.8]\'',benign
'\'<2.8-3.7]\'','\'<-inf-1.9]\'','\'<1.9-2.8]\'','\'<-inf-1.9]\'','\'<1.9-2.8]\'','\'<1.9-2.8]\'',benign
'\'<-inf-1.9]\'','\'<-inf-1.9]\'','\'<-inf-1.9]\'','\'<-inf-1.9]\'','\'<1.9-2.8]\'','\'<-inf-1.9]\'',benign
'\'<-inf-1.9]\'','\'<-inf-1.9]\'','\'<-inf-1.9]\'','\'<-inf-1.9]\'','\'<1.9-2.8]\'','\'<1.9-2.8]\'',benign
'\'<-inf-1.9]\'','\'<-inf-1.9]\'','\'<-inf-1.9]\'','\'<-inf-1.9]\'','\'<-inf-1.9]\'','\'<1.9-2.8]\'',benign
'\'<2.8-3.7]\'','\'<-inf-1.9]\'','\'<-inf-1.9]\'','\'<3.7-4.6]\'','\'<2.8-3.7]\'','\'<1.9-2.8]\'',benign
'\'<4.6-5.5]\'','\'<2.8-3.7]\'','\'<3.7-4.6]\'','\'<-inf-1.9]\'','\'<3.7-4.6]\'','\'<2.8-3.7]\'',benign
'\'<-inf-1.9]\'','\'<-inf-1.9]\'','\'<-inf-1.9]\'','\'<-inf-1.9]\'','\'<1.9-2.8]\'','\'<-inf-1.9]\'',benign
'\'<9.1-inf)\'','\'<5.5-6.4]\'','\'<2.8-3.7]\'','\'<5.5-6.4]\'','\'<3.7-4.6]\'','\'<6.4-7.3]\'',malignant
'\'<2.8-3.7]\'','\'<1.9-2.8]\'','\'<1.9-2.8]\'','\'<1.9-2.8]\'','\'<1.9-2.8]\'','\'<2.8-3.7]\'',benign
'\'<1.9-2.8]\'','\'<-inf-1.9]\'','\'<-inf-1.9]\'','\'<-inf-1.9]\'','\'<1.9-2.8]\'','\'<-inf-1.9]\'',benign
'\'<1.9-2.8]\'','\'<-inf-1.9]\'','\'<-inf-1.9]\'','\'<-inf-1.9]\'','\'<1.9-2.8]\'','\'<-inf-1.9]\'',benign
'\'<2.8-3.7]\'','\'<2.8-3.7]\'','\'<1.9-2.8]\'','\'<1.9-2.8]\'','\'<2.8-3.7]\'','\'<-inf-1.9]\'',benign
'\'<6.4-7.3]\'','\'<5.5-6.4]\'','\'<5.5-6.4]\'','\'<2.8-3.7]\'','\'<1.9-2.8]\'','\'<6.4-7.3]\'',malignant
'\'<4.6-5.5]\'','\'<2.8-3.7]\'','\'<2.8-3.7]\'','\'<1.9-2.8]\'','\'<2.8-3.7]\'','\'<2.8-3.7]\'',benign
'\'<1.9-2.8]\'','\'<-inf-1.9]\'','\'<-inf-1.9]\'','\'<-inf-1.9]\'','\'<1.9-2.8]\'','\'<1.9-2.8]\'',benign
'\'<4.6-5.5]\'','\'<-inf-1.9]\'','\'<-inf-1.9]\'','\'<-inf-1.9]\'','\'<2.8-3.7]\'','\'<1.9-2.8]\'',benign
'\'<-inf-1.9]\'','\'<-inf-1.9]\'','\'<-inf-1.9]\'','\'<1.9-2.8]\'','\'<1.9-2.8]\'','\'<1.9-2.8]\'',benign
'\'<9.1-inf)\'','\'<7.3-8.2]\'','\'<6.4-7.3]\'','\'<3.7-4.6]\'','\'<2.8-3.7]\'','\'<6.4-7.3]\'',malignant
'\'<2.8-3.7]\'','\'<-inf-1.9]\'','\'<-inf-1.9]\'','\'<-inf-1.9]\'','\'<1.9-2.8]\'','\'<1.9-2.8]\'',benign
'\'<-inf-1.9]\'','\'<-inf-1.9]\'','\'<-inf-1.9]\'','\'<-inf-1.9]\'','\'<-inf-1.9]\'','\'<-inf-1.9]\'',benign
'\'<-inf-1.9]\'','\'<1.9-2.8]\'','\'<2.8-3.7]\'','\'<-inf-1.9]\'','\'<1.9-2.8]\'','\'<1.9-2.8]\'',benign
'\'<2.8-3.7]\'','\'<-inf-1.9]\'','\'<-inf-1.9]\'','\'<-inf-1.9]\'','\'<1.9-2.8]\'','\'<1.9-2.8]\'',benign
'\'<2.8-3.7]\'','\'<-inf-1.9]\'','\'<-inf-1.9]\'','\'<-inf-1.9]\'','\'<1.9-2.8]\'','\'<2.8-3.7]\'',benign
'\'<3.7-4.6]\'','\'<-inf-1.9]\'','\'<-inf-1.9]\'','\'<-inf-1.9]\'','\'<1.9-2.8]\'','\'<-inf-1.9]\'',benign
'\'<2.8-3.7]\'','\'<1.9-2.8]\'','\'<-inf-1.9]\'','\'<-inf-1.9]\'','\'<1.9-2.8]\'','\'<1.9-2.8]\'',benign
'\'<-inf-1.9]\'','\'<1.9-2.8]\'','\'<2.8-3.7]\'','\'<-inf-1.9]\'','\'<1.9-2.8]\'','\'<-inf-1.9]\'',benign
'\'<2.8-3.7]\'','\'<9.1-inf)\'','\'<7.3-8.2]\'','\'<6.4-7.3]\'','\'<5.5-6.4]\'','\'<8.2-9.1]\'',malignant
'\'<2.8-3.7]\'','\'<-inf-1.9]\'','\'<-inf-1.9]\'','\'<-inf-1.9]\'','\'<1.9-2.8]\'','\'<-inf-1.9]\'',benign
'\'<4.6-5.5]\'','\'<2.8-3.7]\'','\'<2.8-3.7]\'','\'<-inf-1.9]\'','\'<1.9-2.8]\'','\'<1.9-2.8]\'',benign
'\'<2.8-3.7]\'','\'<-inf-1.9]\'','\'<-inf-1.9]\'','\'<-inf-1.9]\'','\'<1.9-2.8]\'','\'<-inf-1.9]\'',benign
'\'<-inf-1.9]\'','\'<1.9-2.8]\'','\'<-inf-1.9]\'','\'<2.8-3.7]\'','\'<1.9-2.8]\'','\'<-inf-1.9]\'',benign
'\'<-inf-1.9]\'','\'<-inf-1.9]\'','\'<-inf-1.9]\'','\'<-inf-1.9]\'','\'<1.9-2.8]\'','\'<1.9-2.8]\'',benign
'\'<3.7-4.6]\'','\'<1.9-2.8]\'','\'<1.9-2.8]\'','\'<-inf-1.9]\'','\'<1.9-2.8]\'','\'<1.9-2.8]\'',benign
'\'<-inf-1.9]\'','\'<-inf-1.9]\'','\'<-inf-1.9]\'','\'<-inf-1.9]\'','\'<1.9-2.8]\'','\'<1.9-2.8]\'',benign
'\'<1.9-2.8]\'','\'<2.8-3.7]\'','\'<1.9-2.8]\'','\'<1.9-2.8]\'','\'<1.9-2.8]\'','\'<2.8-3.7]\'',benign
'\'<2.8-3.7]\'','\'<-inf-1.9]\'','\'<1.9-2.8]\'','\'<-inf-1.9]\'','\'<1.9-2.8]\'','\'<1.9-2.8]\'',benign
'\'<-inf-1.9]\'','\'<-inf-1.9]\'','\'<-inf-1.9]\'','\'<-inf-1.9]\'','\'<1.9-2.8]\'','\'<1.9-2.8]\'',benign
'\'<-inf-1.9]\'','\'<-inf-1.9]\'','\'<-inf-1.9]\'','\'<-inf-1.9]\'','\'<-inf-1.9]\'','\'<1.9-2.8]\'',benign
'\'<9.1-inf)\'','\'<9.1-inf)\'','\'<9.1-inf)\'','\'<5.5-6.4]\'','\'<7.3-8.2]\'','\'<7.3-8.2]\'',malignant
'\'<4.6-5.5]\'','\'<-inf-1.9]\'','\'<1.9-2.8]\'','\'<-inf-1.9]\'','\'<1.9-2.8]\'','\'<2.8-3.7]\'',benign
'\'<7.3-8.2]\'','\'<4.6-5.5]\'','\'<5.5-6.4]\'','\'<1.9-2.8]\'','\'<2.8-3.7]\'','\'<5.5-6.4]\'',malignant
'\'<2.8-3.7]\'','\'<2.8-3.7]\'','\'<1.9-2.8]\'','\'<5.5-6.4]\'','\'<2.8-3.7]\'','\'<2.8-3.7]\'',benign
'\'<7.3-8.2]\'','\'<6.4-7.3]\'','\'<7.3-8.2]\'','\'<4.6-5.5]\'','\'<9.1-inf)\'','\'<6.4-7.3]\'',malignant
'\'<-inf-1.9]\'','\'<-inf-1.9]\'','\'<-inf-1.9]\'','\'<-inf-1.9]\'','\'<1.9-2.8]\'','\'<1.9-2.8]\'',benign
'\'<4.6-5.5]\'','\'<1.9-2.8]\'','\'<1.9-2.8]\'','\'<1.9-2.8]\'','\'<1.9-2.8]\'','\'<2.8-3.7]\'',benign
'\'<1.9-2.8]\'','\'<2.8-3.7]\'','\'<-inf-1.9]\'','\'<-inf-1.9]\'','\'<4.6-5.5]\'','\'<-inf-1.9]\'',benign
'\'<2.8-3.7]\'','\'<1.9-2.8]\'','\'<1.9-2.8]\'','\'<2.8-3.7]\'','\'<1.9-2.8]\'','\'<2.8-3.7]\'',benign
'\'<9.1-inf)\'','\'<9.1-inf)\'','\'<9.1-inf)\'','\'<6.4-7.3]\'','\'<9.1-inf)\'','\'<7.3-8.2]\'',malignant
'\'<3.7-4.6]\'','\'<2.8-3.7]\'','\'<2.8-3.7]\'','\'<-inf-1.9]\'','\'<1.9-2.8]\'','\'<2.8-3.7]\'',benign
'\'<4.6-5.5]\'','\'<-inf-1.9]\'','\'<2.8-3.7]\'','\'<-inf-1.9]\'','\'<1.9-2.8]\'','\'<1.9-2.8]\'',benign
'\'<2.8-3.7]\'','\'<-inf-1.9]\'','\'<-inf-1.9]\'','\'<-inf-1.9]\'','\'<1.9-2.8]\'','\'<-inf-1.9]\'',benign
'\'<8.2-9.1]\'','\'<9.1-inf)\'','\'<9.1-inf)\'','\'<9.1-inf)\'','\'<9.1-inf)\'','\'<9.1-inf)\'',malignant
'\'<4.6-5.5]\'','\'<2.8-3.7]\'','\'<5.5-6.4]\'','\'<-inf-1.9]\'','\'<1.9-2.8]\'','\'<-inf-1.9]\'',benign
'\'<7.3-8.2]\'','\'<6.4-7.3]\'','\'<7.3-8.2]\'','\'<1.9-2.8]\'','\'<3.7-4.6]\'','\'<4.6-5.5]\'',malignant
'\'<-inf-1.9]\'','\'<-inf-1.9]\'','\'<-inf-1.9]\'','\'<-inf-1.9]\'','\'<1.9-2.8]\'','\'<1.9-2.8]\'',benign
'\'<1.9-2.8]\'','\'<-inf-1.9]\'','\'<-inf-1.9]\'','\'<-inf-1.9]\'','\'<1.9-2.8]\'','\'<1.9-2.8]\'',benign
'\'<-inf-1.9]\'','\'<2.8-3.7]\'','\'<-inf-1.9]\'','\'<-inf-1.9]\'','\'<1.9-2.8]\'','\'<1.9-2.8]\'',benign
'\'<4.6-5.5]\'','\'<-inf-1.9]\'','\'<-inf-1.9]\'','\'<2.8-3.7]\'','\'<3.7-4.6]\'','\'<2.8-3.7]\'',benign
'\'<4.6-5.5]\'','\'<-inf-1.9]\'','\'<-inf-1.9]\'','\'<-inf-1.9]\'','\'<1.9-2.8]\'','\'<1.9-2.8]\'',benign
'\'<2.8-3.7]\'','\'<1.9-2.8]\'','\'<1.9-2.8]\'','\'<2.8-3.7]\'','\'<1.9-2.8]\'','\'<-inf-1.9]\'',benign
'\'<5.5-6.4]\'','\'<8.2-9.1]\'','\'<6.4-7.3]\'','\'<4.6-5.5]\'','\'<4.6-5.5]\'','\'<3.7-4.6]\'',benign
'\'<9.1-inf)\'','\'<7.3-8.2]\'','\'<9.1-inf)\'','\'<-inf-1.9]\'','\'<2.8-3.7]\'','\'<4.6-5.5]\'',malignant
'\'<9.1-inf)\'','\'<9.1-inf)\'','\'<9.1-inf)\'','\'<-inf-1.9]\'','\'<5.5-6.4]\'','\'<1.9-2.8]\'',malignant
'\'<3.7-4.6]\'','\'<-inf-1.9]\'','\'<-inf-1.9]\'','\'<-inf-1.9]\'','\'<1.9-2.8]\'','\'<-inf-1.9]\'',benign
'\'<3.7-4.6]\'','\'<-inf-1.9]\'','\'<2.8-3.7]\'','\'<2.8-3.7]\'','\'<1.9-2.8]\'','\'<-inf-1.9]\'',benign
'\'<4.6-5.5]\'','\'<-inf-1.9]\'','\'<-inf-1.9]\'','\'<-inf-1.9]\'','\'<1.9-2.8]\'','\'<-inf-1.9]\'',benign
'\'<9.1-inf)\'','\'<3.7-4.6]\'','\'<2.8-3.7]\'','\'<9.1-inf)\'','\'<3.7-4.6]\'','\'<9.1-inf)\'',malignant
'\'<4.6-5.5]\'','\'<1.9-2.8]\'','\'<1.9-2.8]\'','\'<3.7-4.6]\'','\'<1.9-2.8]\'','\'<-inf-1.9]\'',benign
'\'<-inf-1.9]\'','\'<-inf-1.9]\'','\'<-inf-1.9]\'','\'<2.8-3.7]\'','\'<1.9-2.8]\'','\'<-inf-1.9]\'',benign
'\'<-inf-1.9]\'','\'<-inf-1.9]\'','\'<-inf-1.9]\'','\'<-inf-1.9]\'','\'<1.9-2.8]\'','\'<-inf-1.9]\'',benign
'\'<4.6-5.5]\'','\'<-inf-1.9]\'','\'<-inf-1.9]\'','\'<5.5-6.4]\'','\'<2.8-3.7]\'','\'<1.9-2.8]\'',benign
'\'<1.9-2.8]\'','\'<-inf-1.9]\'','\'<-inf-1.9]\'','\'<-inf-1.9]\'','\'<1.9-2.8]\'','\'<-inf-1.9]\'',benign
'\'<-inf-1.9]\'','\'<-inf-1.9]\'','\'<-inf-1.9]\'','\'<-inf-1.9]\'','\'<1.9-2.8]\'','\'<-inf-1.9]\'',benign
'\'<4.6-5.5]\'','\'<-inf-1.9]\'','\'<-inf-1.9]\'','\'<-inf-1.9]\'','\'<1.9-2.8]\'','\'<-inf-1.9]\'',benign
'\'<-inf-1.9]\'','\'<-inf-1.9]\'','\'<-inf-1.9]\'','\'<-inf-1.9]\'','\'<-inf-1.9]\'','\'<-inf-1.9]\'',benign
'\'<4.6-5.5]\'','\'<6.4-7.3]\'','\'<8.2-9.1]\'','\'<7.3-8.2]\'','\'<5.5-6.4]\'','\'<7.3-8.2]\'',malignant
'\'<3.7-4.6]\'','\'<-inf-1.9]\'','\'<-inf-1.9]\'','\'<2.8-3.7]\'','\'<-inf-1.9]\'','\'<1.9-2.8]\'',benign
'\'<4.6-5.5]\'','\'<-inf-1.9]\'','\'<-inf-1.9]\'','\'<-inf-1.9]\'','\'<1.9-2.8]\'','\'<-inf-1.9]\'',benign
'\'<2.8-3.7]\'','\'<-inf-1.9]\'','\'<-inf-1.9]\'','\'<2.8-3.7]\'','\'<1.9-2.8]\'','\'<-inf-1.9]\'',benign
'\'<3.7-4.6]\'','\'<4.6-5.5]\'','\'<4.6-5.5]\'','\'<7.3-8.2]\'','\'<5.5-6.4]\'','\'<9.1-inf)\'',malignant
'\'<1.9-2.8]\'','\'<2.8-3.7]\'','\'<-inf-1.9]\'','\'<-inf-1.9]\'','\'<2.8-3.7]\'','\'<-inf-1.9]\'',benign
'\'<9.1-inf)\'','\'<1.9-2.8]\'','\'<1.9-2.8]\'','\'<-inf-1.9]\'','\'<1.9-2.8]\'','\'<-inf-1.9]\'',malignant
'\'<9.1-inf)\'','\'<5.5-6.4]\'','\'<4.6-5.5]\'','\'<7.3-8.2]\'','\'<4.6-5.5]\'','\'<7.3-8.2]\'',malignant
'\'<7.3-8.2]\'','\'<7.3-8.2]\'','\'<8.2-9.1]\'','\'<5.5-6.4]\'','\'<5.5-6.4]\'','\'<9.1-inf)\'',malignant
'\'<4.6-5.5]\'','\'<-inf-1.9]\'','\'<1.9-2.8]\'','\'<-inf-1.9]\'','\'<1.9-2.8]\'','\'<-inf-1.9]\'',benign
'\'<4.6-5.5]\'','\'<-inf-1.9]\'','\'<2.8-3.7]\'','\'<-inf-1.9]\'','\'<1.9-2.8]\'','\'<-inf-1.9]\'',benign
'\'<4.6-5.5]\'','\'<-inf-1.9]\'','\'<-inf-1.9]\'','\'<2.8-3.7]\'','\'<1.9-2.8]\'','\'<-inf-1.9]\'',benign
'\'<2.8-3.7]\'','\'<-inf-1.9]\'','\'<-inf-1.9]\'','\'<-inf-1.9]\'','\'<1.9-2.8]\'','\'<-inf-1.9]\'',benign
'\'<5.5-6.4]\'','\'<-inf-1.9]\'','\'<-inf-1.9]\'','\'<2.8-3.7]\'','\'<1.9-2.8]\'','\'<-inf-1.9]\'',benign
'\'<3.7-4.6]\'','\'<-inf-1.9]\'','\'<-inf-1.9]\'','\'<-inf-1.9]\'','\'<1.9-2.8]\'','\'<-inf-1.9]\'',benign
'\'<3.7-4.6]\'','\'<-inf-1.9]\'','\'<-inf-1.9]\'','\'<-inf-1.9]\'','\'<1.9-2.8]\'','\'<-inf-1.9]\'',benign
'\'<9.1-inf)\'','\'<8.2-9.1]\'','\'<7.3-8.2]\'','\'<6.4-7.3]\'','\'<5.5-6.4]\'','\'<6.4-7.3]\'',malignant
'\'<9.1-inf)\'','\'<5.5-6.4]\'','\'<5.5-6.4]\'','\'<1.9-2.8]\'','\'<3.7-4.6]\'','\'<8.2-9.1]\'',malignant
'\'<5.5-6.4]\'','\'<5.5-6.4]\'','\'<5.5-6.4]\'','\'<4.6-5.5]\'','\'<3.7-4.6]\'','\'<6.4-7.3]\'',malignant
'\'<3.7-4.6]\'','\'<-inf-1.9]\'','\'<-inf-1.9]\'','\'<-inf-1.9]\'','\'<1.9-2.8]\'','\'<-inf-1.9]\'',benign
'\'<-inf-1.9]\'','\'<-inf-1.9]\'','\'<1.9-2.8]\'','\'<-inf-1.9]\'','\'<1.9-2.8]\'','\'<1.9-2.8]\'',benign
'\'<2.8-3.7]\'','\'<-inf-1.9]\'','\'<-inf-1.9]\'','\'<-inf-1.9]\'','\'<-inf-1.9]\'','\'<1.9-2.8]\'',benign
'\'<5.5-6.4]\'','\'<-inf-1.9]\'','\'<-inf-1.9]\'','\'<2.8-3.7]\'','\'<1.9-2.8]\'','\'<-inf-1.9]\'',benign
'\'<5.5-6.4]\'','\'<-inf-1.9]\'','\'<-inf-1.9]\'','\'<-inf-1.9]\'','\'<-inf-1.9]\'','\'<-inf-1.9]\'',benign
'\'<3.7-4.6]\'','\'<-inf-1.9]\'','\'<-inf-1.9]\'','\'<-inf-1.9]\'','\'<1.9-2.8]\'','\'<-inf-1.9]\'',benign
'\'<4.6-5.5]\'','\'<-inf-1.9]\'','\'<-inf-1.9]\'','\'<-inf-1.9]\'','\'<1.9-2.8]\'','\'<-inf-1.9]\'',benign
'\'<2.8-3.7]\'','\'<-inf-1.9]\'','\'<-inf-1.9]\'','\'<-inf-1.9]\'','\'<1.9-2.8]\'','\'<-inf-1.9]\'',benign
'\'<3.7-4.6]\'','\'<-inf-1.9]\'','\'<1.9-2.8]\'','\'<-inf-1.9]\'','\'<1.9-2.8]\'','\'<-inf-1.9]\'',benign
'\'<3.7-4.6]\'','\'<-inf-1.9]\'','\'<-inf-1.9]\'','\'<-inf-1.9]\'','\'<1.9-2.8]\'','\'<-inf-1.9]\'',benign
'\'<4.6-5.5]\'','\'<1.9-2.8]\'','\'<-inf-1.9]\'','\'<-inf-1.9]\'','\'<1.9-2.8]\'','\'<-inf-1.9]\'',benign
'\'<3.7-4.6]\'','\'<7.3-8.2]\'','\'<6.4-7.3]\'','\'<9.1-inf)\'','\'<3.7-4.6]\'','\'<6.4-7.3]\'',malignant
'\'<4.6-5.5]\'','\'<-inf-1.9]\'','\'<-inf-1.9]\'','\'<-inf-1.9]\'','\'<-inf-1.9]\'','\'<-inf-1.9]\'',benign
'\'<4.6-5.5]\'','\'<2.8-3.7]\'','\'<1.9-2.8]\'','\'<3.7-4.6]\'','\'<1.9-2.8]\'','\'<-inf-1.9]\'',benign
'\'<8.2-9.1]\'','\'<9.1-inf)\'','\'<9.1-inf)\'','\'<9.1-inf)\'','\'<9.1-inf)\'','\'<9.1-inf)\'',malignant
'\'<7.3-8.2]\'','\'<6.4-7.3]\'','\'<7.3-8.2]\'','\'<4.6-5.5]\'','\'<4.6-5.5]\'','\'<8.2-9.1]\'',malignant
'\'<4.6-5.5]\'','\'<-inf-1.9]\'','\'<1.9-2.8]\'','\'<-inf-1.9]\'','\'<1.9-2.8]\'','\'<-inf-1.9]\'',benign
'\'<-inf-1.9]\'','\'<-inf-1.9]\'','\'<-inf-1.9]\'','\'<2.8-3.7]\'','\'<-inf-1.9]\'','\'<-inf-1.9]\'',benign
'\'<2.8-3.7]\'','\'<-inf-1.9]\'','\'<-inf-1.9]\'','\'<-inf-1.9]\'','\'<-inf-1.9]\'','\'<1.9-2.8]\'',benign
'\'<9.1-inf)\'','\'<9.1-inf)\'','\'<9.1-inf)\'','\'<9.1-inf)\'','\'<5.5-6.4]\'','\'<7.3-8.2]\'',malignant
'\'<2.8-3.7]\'','\'<5.5-6.4]\'','\'<3.7-4.6]\'','\'<9.1-inf)\'','\'<2.8-3.7]\'','\'<2.8-3.7]\'',malignant
'\'<5.5-6.4]\'','\'<2.8-3.7]\'','\'<1.9-2.8]\'','\'<-inf-1.9]\'','\'<2.8-3.7]\'','\'<3.7-4.6]\'',malignant
'\'<-inf-1.9]\'','\'<-inf-1.9]\'','\'<-inf-1.9]\'','\'<-inf-1.9]\'','\'<1.9-2.8]\'','\'<-inf-1.9]\'',benign
'\'<4.6-5.5]\'','\'<7.3-8.2]\'','\'<8.2-9.1]\'','\'<3.7-4.6]\'','\'<2.8-3.7]\'','\'<6.4-7.3]\'',malignant
'\'<3.7-4.6]\'','\'<-inf-1.9]\'','\'<-inf-1.9]\'','\'<-inf-1.9]\'','\'<-inf-1.9]\'','\'<1.9-2.8]\'',benign
'\'<4.6-5.5]\'','\'<9.1-inf)\'','\'<9.1-inf)\'','\'<9.1-inf)\'','\'<5.5-6.4]\'','\'<5.5-6.4]\'',malignant
'\'<4.6-5.5]\'','\'<-inf-1.9]\'','\'<1.9-2.8]\'','\'<9.1-inf)\'','\'<3.7-4.6]\'','\'<1.9-2.8]\'',benign
'\'<2.8-3.7]\'','\'<-inf-1.9]\'','\'<-inf-1.9]\'','\'<-inf-1.9]\'','\'<-inf-1.9]\'','\'<1.9-2.8]\'',benign
'\'<-inf-1.9]\'','\'<-inf-1.9]\'','\'<-inf-1.9]\'','\'<-inf-1.9]\'','\'<-inf-1.9]\'','\'<-inf-1.9]\'',benign
'\'<3.7-4.6]\'','\'<1.9-2.8]\'','\'<-inf-1.9]\'','\'<-inf-1.9]\'','\'<1.9-2.8]\'','\'<-inf-1.9]\'',benign
'\'<3.7-4.6]\'','\'<-inf-1.9]\'','\'<-inf-1.9]\'','\'<-inf-1.9]\'','\'<1.9-2.8]\'','\'<1.9-2.8]\'',benign
'\'<3.7-4.6]\'','\'<-inf-1.9]\'','\'<-inf-1.9]\'','\'<-inf-1.9]\'','\'<1.9-2.8]\'','\'<1.9-2.8]\'',benign
'\'<5.5-6.4]\'','\'<-inf-1.9]\'','\'<-inf-1.9]\'','\'<-inf-1.9]\'','\'<1.9-2.8]\'','\'<2.8-3.7]\'',benign
'\'<3.7-4.6]\'','\'<-inf-1.9]\'','\'<-inf-1.9]\'','\'<-inf-1.9]\'','\'<1.9-2.8]\'','\'<1.9-2.8]\'',benign
'\'<3.7-4.6]\'','\'<-inf-1.9]\'','\'<-inf-1.9]\'','\'<1.9-2.8]\'','\'<1.9-2.8]\'','\'<1.9-2.8]\'',benign
'\'<3.7-4.6]\'','\'<-inf-1.9]\'','\'<-inf-1.9]\'','\'<-inf-1.9]\'','\'<1.9-2.8]\'','\'<2.8-3.7]\'',benign
'\'<-inf-1.9]\'','\'<-inf-1.9]\'','\'<-inf-1.9]\'','\'<-inf-1.9]\'','\'<1.9-2.8]\'','\'<-inf-1.9]\'',benign
'\'<2.8-3.7]\'','\'<2.8-3.7]\'','\'<-inf-1.9]\'','\'<-inf-1.9]\'','\'<1.9-2.8]\'','\'<-inf-1.9]\'',benign
'\'<7.3-8.2]\'','\'<9.1-inf)\'','\'<9.1-inf)\'','\'<9.1-inf)\'','\'<6.4-7.3]\'','\'<3.7-4.6]\'',malignant
'\'<-inf-1.9]\'','\'<-inf-1.9]\'','\'<-inf-1.9]\'','\'<-inf-1.9]\'','\'<1.9-2.8]\'','\'<-inf-1.9]\'',benign
'\'<4.6-5.5]\'','\'<-inf-1.9]\'','\'<-inf-1.9]\'','\'<-inf-1.9]\'','\'<1.9-2.8]\'','\'<-inf-1.9]\'',benign
'\'<1.9-2.8]\'','\'<-inf-1.9]\'','\'<-inf-1.9]\'','\'<-inf-1.9]\'','\'<1.9-2.8]\'','\'<-inf-1.9]\'',benign
'\'<-inf-1.9]\'','\'<-inf-1.9]\'','\'<-inf-1.9]\'','\'<-inf-1.9]\'','\'<1.9-2.8]\'','\'<-inf-1.9]\'',benign
'\'<4.6-5.5]\'','\'<-inf-1.9]\'','\'<-inf-1.9]\'','\'<-inf-1.9]\'','\'<1.9-2.8]\'','\'<1.9-2.8]\'',benign
'\'<4.6-5.5]\'','\'<-inf-1.9]\'','\'<-inf-1.9]\'','\'<-inf-1.9]\'','\'<1.9-2.8]\'','\'<-inf-1.9]\'',benign
'\'<2.8-3.7]\'','\'<-inf-1.9]\'','\'<-inf-1.9]\'','\'<-inf-1.9]\'','\'<-inf-1.9]\'','\'<1.9-2.8]\'',benign
'\'<5.5-6.4]\'','\'<5.5-6.4]\'','\'<6.4-7.3]\'','\'<9.1-inf)\'','\'<2.8-3.7]\'','\'<7.3-8.2]\'',malignant
'\'<3.7-4.6]\'','\'<9.1-inf)\'','\'<3.7-4.6]\'','\'<6.4-7.3]\'','\'<2.8-3.7]\'','\'<8.2-9.1]\'',malignant
'\'<-inf-1.9]\'','\'<-inf-1.9]\'','\'<-inf-1.9]\'','\'<-inf-1.9]\'','\'<-inf-1.9]\'','\'<-inf-1.9]\'',benign
'\'<-inf-1.9]\'','\'<-inf-1.9]\'','\'<-inf-1.9]\'','\'<-inf-1.9]\'','\'<-inf-1.9]\'','\'<1.9-2.8]\'',benign
'\'<2.8-3.7]\'','\'<-inf-1.9]\'','\'<1.9-2.8]\'','\'<1.9-2.8]\'','\'<1.9-2.8]\'','\'<-inf-1.9]\'',benign
'\'<3.7-4.6]\'','\'<6.4-7.3]\'','\'<7.3-8.2]\'','\'<2.8-3.7]\'','\'<3.7-4.6]\'','\'<8.2-9.1]\'',malignant
'\'<-inf-1.9]\'','\'<-inf-1.9]\'','\'<-inf-1.9]\'','\'<-inf-1.9]\'','\'<2.8-3.7]\'','\'<-inf-1.9]\'',benign
'\'<3.7-4.6]\'','\'<-inf-1.9]\'','\'<-inf-1.9]\'','\'<-inf-1.9]\'','\'<2.8-3.7]\'','\'<-inf-1.9]\'',benign
'\'<9.1-inf)\'','\'<3.7-4.6]\'','\'<4.6-5.5]\'','\'<3.7-4.6]\'','\'<2.8-3.7]\'','\'<6.4-7.3]\'',malignant
'\'<6.4-7.3]\'','\'<4.6-5.5]\'','\'<5.5-6.4]\'','\'<9.1-inf)\'','\'<3.7-4.6]\'','\'<4.6-5.5]\'',malignant
'\'<2.8-3.7]\'','\'<-inf-1.9]\'','\'<-inf-1.9]\'','\'<-inf-1.9]\'','\'<1.9-2.8]\'','\'<1.9-2.8]\'',benign
'\'<2.8-3.7]\'','\'<-inf-1.9]\'','\'<-inf-1.9]\'','\'<1.9-2.8]\'','\'<1.9-2.8]\'','\'<-inf-1.9]\'',benign
'\'<3.7-4.6]\'','\'<-inf-1.9]\'','\'<-inf-1.9]\'','\'<-inf-1.9]\'','\'<1.9-2.8]\'','\'<-inf-1.9]\'',benign
'\'<3.7-4.6]\'','\'<-inf-1.9]\'','\'<-inf-1.9]\'','\'<-inf-1.9]\'','\'<1.9-2.8]\'','\'<2.8-3.7]\'',benign
'\'<5.5-6.4]\'','\'<-inf-1.9]\'','\'<2.8-3.7]\'','\'<1.9-2.8]\'','\'<1.9-2.8]\'','\'<-inf-1.9]\'',benign
'\'<3.7-4.6]\'','\'<-inf-1.9]\'','\'<-inf-1.9]\'','\'<-inf-1.9]\'','\'<-inf-1.9]\'','\'<1.9-2.8]\'',benign
'\'<6.4-7.3]\'','\'<3.7-4.6]\'','\'<3.7-4.6]\'','\'<2.8-3.7]\'','\'<3.7-4.6]\'','\'<5.5-6.4]\'',malignant
'\'<3.7-4.6]\'','\'<1.9-2.8]\'','\'<1.9-2.8]\'','\'<-inf-1.9]\'','\'<1.9-2.8]\'','\'<1.9-2.8]\'',benign
'\'<-inf-1.9]\'','\'<-inf-1.9]\'','\'<-inf-1.9]\'','\'<-inf-1.9]\'','\'<-inf-1.9]\'','\'<2.8-3.7]\'',benign
'\'<2.8-3.7]\'','\'<-inf-1.9]\'','\'<-inf-1.9]\'','\'<-inf-1.9]\'','\'<1.9-2.8]\'','\'<1.9-2.8]\'',benign
'\'<1.9-2.8]\'','\'<-inf-1.9]\'','\'<-inf-1.9]\'','\'<-inf-1.9]\'','\'<1.9-2.8]\'','\'<1.9-2.8]\'',benign
'\'<-inf-1.9]\'','\'<-inf-1.9]\'','\'<2.8-3.7]\'','\'<1.9-2.8]\'','\'<1.9-2.8]\'','\'<2.8-3.7]\'',benign
'\'<4.6-5.5]\'','\'<-inf-1.9]\'','\'<-inf-1.9]\'','\'<-inf-1.9]\'','\'<1.9-2.8]\'','\'<2.8-3.7]\'',benign
'\'<4.6-5.5]\'','\'<-inf-1.9]\'','\'<1.9-2.8]\'','\'<-inf-1.9]\'','\'<1.9-2.8]\'','\'<2.8-3.7]\'',benign
'\'<3.7-4.6]\'','\'<-inf-1.9]\'','\'<-inf-1.9]\'','\'<-inf-1.9]\'','\'<1.9-2.8]\'','\'<1.9-2.8]\'',benign
'\'<5.5-6.4]\'','\'<-inf-1.9]\'','\'<-inf-1.9]\'','\'<-inf-1.9]\'','\'<1.9-2.8]\'','\'<1.9-2.8]\'',benign
'\'<4.6-5.5]\'','\'<-inf-1.9]\'','\'<-inf-1.9]\'','\'<-inf-1.9]\'','\'<1.9-2.8]\'','\'<1.9-2.8]\'',benign
'\'<2.8-3.7]\'','\'<-inf-1.9]\'','\'<-inf-1.9]\'','\'<-inf-1.9]\'','\'<1.9-2.8]\'','\'<-inf-1.9]\'',benign
'\'<4.6-5.5]\'','\'<2.8-3.7]\'','\'<-inf-1.9]\'','\'<-inf-1.9]\'','\'<1.9-2.8]\'','\'<-inf-1.9]\'',benign
'\'<3.7-4.6]\'','\'<-inf-1.9]\'','\'<-inf-1.9]\'','\'<-inf-1.9]\'','\'<1.9-2.8]\'','\'<1.9-2.8]\'',benign
'\'<1.9-2.8]\'','\'<-inf-1.9]\'','\'<2.8-3.7]\'','\'<1.9-2.8]\'','\'<1.9-2.8]\'','\'<1.9-2.8]\'',benign
'\'<4.6-5.5]\'','\'<-inf-1.9]\'','\'<-inf-1.9]\'','\'<-inf-1.9]\'','\'<1.9-2.8]\'','\'<1.9-2.8]\'',benign
'\'<5.5-6.4]\'','\'<9.1-inf)\'','\'<9.1-inf)\'','\'<9.1-inf)\'','\'<3.7-4.6]\'','\'<6.4-7.3]\'',malignant
'\'<1.9-2.8]\'','\'<-inf-1.9]\'','\'<-inf-1.9]\'','\'<-inf-1.9]\'','\'<-inf-1.9]\'','\'<-inf-1.9]\'',benign
'\'<2.8-3.7]\'','\'<-inf-1.9]\'','\'<-inf-1.9]\'','\'<-inf-1.9]\'','\'<-inf-1.9]\'','\'<-inf-1.9]\'',benign
'\'<6.4-7.3]\'','\'<7.3-8.2]\'','\'<2.8-3.7]\'','\'<6.4-7.3]\'','\'<3.7-4.6]\'','\'<6.4-7.3]\'',malignant
'\'<2.8-3.7]\'','\'<-inf-1.9]\'','\'<-inf-1.9]\'','\'<-inf-1.9]\'','\'<1.9-2.8]\'','\'<1.9-2.8]\'',benign
'\'<-inf-1.9]\'','\'<-inf-1.9]\'','\'<-inf-1.9]\'','\'<-inf-1.9]\'','\'<1.9-2.8]\'','\'<2.8-3.7]\'',benign
'\'<2.8-3.7]\'','\'<1.9-2.8]\'','\'<1.9-2.8]\'','\'<1.9-2.8]\'','\'<1.9-2.8]\'','\'<3.7-4.6]\'',benign
'\'<3.7-4.6]\'','\'<3.7-4.6]\'','\'<1.9-2.8]\'','\'<-inf-1.9]\'','\'<1.9-2.8]\'','\'<1.9-2.8]\'',benign
'\'<2.8-3.7]\'','\'<-inf-1.9]\'','\'<-inf-1.9]\'','\'<-inf-1.9]\'','\'<1.9-2.8]\'','\'<-inf-1.9]\'',benign
'\'<3.7-4.6]\'','\'<2.8-3.7]\'','\'<-inf-1.9]\'','\'<-inf-1.9]\'','\'<1.9-2.8]\'','\'<3.7-4.6]\'',benign
'\'<4.6-5.5]\'','\'<1.9-2.8]\'','\'<1.9-2.8]\'','\'<1.9-2.8]\'','\'<-inf-1.9]\'','\'<1.9-2.8]\'',benign
'\'<4.6-5.5]\'','\'<-inf-1.9]\'','\'<-inf-1.9]\'','\'<2.8-3.7]\'','\'<1.9-2.8]\'','\'<-inf-1.9]\'',benign
'\'<1.9-2.8]\'','\'<-inf-1.9]\'','\'<-inf-1.9]\'','\'<-inf-1.9]\'','\'<1.9-2.8]\'','\'<1.9-2.8]\'',benign
'\'<4.6-5.5]\'','\'<-inf-1.9]\'','\'<-inf-1.9]\'','\'<-inf-1.9]\'','\'<1.9-2.8]\'','\'<1.9-2.8]\'',benign
'\'<4.6-5.5]\'','\'<-inf-1.9]\'','\'<-inf-1.9]\'','\'<-inf-1.9]\'','\'<1.9-2.8]\'','\'<2.8-3.7]\'',benign
'\'<4.6-5.5]\'','\'<-inf-1.9]\'','\'<-inf-1.9]\'','\'<-inf-1.9]\'','\'<1.9-2.8]\'','\'<2.8-3.7]\'',benign
'\'<-inf-1.9]\'','\'<-inf-1.9]\'','\'<-inf-1.9]\'','\'<-inf-1.9]\'','\'<1.9-2.8]\'','\'<2.8-3.7]\'',benign
'\'<2.8-3.7]\'','\'<-inf-1.9]\'','\'<-inf-1.9]\'','\'<-inf-1.9]\'','\'<1.9-2.8]\'','\'<1.9-2.8]\'',benign
'\'<3.7-4.6]\'','\'<-inf-1.9]\'','\'<-inf-1.9]\'','\'<-inf-1.9]\'','\'<1.9-2.8]\'','\'<2.8-3.7]\'',benign
'\'<4.6-5.5]\'','\'<6.4-7.3]\'','\'<9.1-inf)\'','\'<9.1-inf)\'','\'<4.6-5.5]\'','\'<9.1-inf)\'',malignant
'\'<2.8-3.7]\'','\'<-inf-1.9]\'','\'<1.9-2.8]\'','\'<-inf-1.9]\'','\'<1.9-2.8]\'','\'<2.8-3.7]\'',benign
'\'<3.7-4.6]\'','\'<-inf-1.9]\'','\'<-inf-1.9]\'','\'<-inf-1.9]\'','\'<1.9-2.8]\'','\'<1.9-2.8]\'',benign
'\'<7.3-8.2]\'','\'<3.7-4.6]\'','\'<3.7-4.6]\'','\'<-inf-1.9]\'','\'<5.5-6.4]\'','\'<1.9-2.8]\'',malignant
'\'<9.1-inf)\'','\'<9.1-inf)\'','\'<7.3-8.2]\'','\'<9.1-inf)\'','\'<5.5-6.4]\'','\'<9.1-inf)\'',malignant
'\'<7.3-8.2]\'','\'<9.1-inf)\'','\'<3.7-4.6]\'','\'<3.7-4.6]\'','\'<7.3-8.2]\'','\'<7.3-8.2]\'',malignant
'\'<6.4-7.3]\'','\'<5.5-6.4]\'','\'<9.1-inf)\'','\'<4.6-5.5]\'','\'<2.8-3.7]\'','\'<8.2-9.1]\'',malignant
'\'<2.8-3.7]\'','\'<-inf-1.9]\'','\'<-inf-1.9]\'','\'<-inf-1.9]\'','\'<1.9-2.8]\'','\'<1.9-2.8]\'',benign
'\'<-inf-1.9]\'','\'<-inf-1.9]\'','\'<-inf-1.9]\'','\'<-inf-1.9]\'','\'<1.9-2.8]\'','\'<1.9-2.8]\'',benign
'\'<9.1-inf)\'','\'<8.2-9.1]\'','\'<6.4-7.3]\'','\'<2.8-3.7]\'','\'<3.7-4.6]\'','\'<6.4-7.3]\'',malignant
'\'<4.6-5.5]\'','\'<-inf-1.9]\'','\'<1.9-2.8]\'','\'<-inf-1.9]\'','\'<1.9-2.8]\'','\'<2.8-3.7]\'',benign
'\'<4.6-5.5]\'','\'<-inf-1.9]\'','\'<-inf-1.9]\'','\'<-inf-1.9]\'','\'<1.9-2.8]\'','\'<1.9-2.8]\'',benign
'\'<-inf-1.9]\'','\'<-inf-1.9]\'','\'<-inf-1.9]\'','\'<-inf-1.9]\'','\'<1.9-2.8]\'','\'<1.9-2.8]\'',benign
'\'<-inf-1.9]\'','\'<-inf-1.9]\'','\'<-inf-1.9]\'','\'<-inf-1.9]\'','\'<1.9-2.8]\'','\'<1.9-2.8]\'',benign
'\'<-inf-1.9]\'','\'<-inf-1.9]\'','\'<-inf-1.9]\'','\'<-inf-1.9]\'','\'<1.9-2.8]\'','\'<2.8-3.7]\'',benign
'\'<4.6-5.5]\'','\'<-inf-1.9]\'','\'<1.9-2.8]\'','\'<-inf-1.9]\'','\'<1.9-2.8]\'','\'<1.9-2.8]\'',benign
'\'<4.6-5.5]\'','\'<6.4-7.3]\'','\'<9.1-inf)\'','\'<5.5-6.4]\'','\'<4.6-5.5]\'','\'<6.4-7.3]\'',malignant
'\'<5.5-6.4]\'','\'<9.1-inf)\'','\'<4.6-5.5]\'','\'<4.6-5.5]\'','\'<3.7-4.6]\'','\'<5.5-6.4]\'',malignant
'\'<2.8-3.7]\'','\'<-inf-1.9]\'','\'<-inf-1.9]\'','\'<-inf-1.9]\'','\'<1.9-2.8]\'','\'<-inf-1.9]\'',benign
'\'<4.6-5.5]\'','\'<-inf-1.9]\'','\'<-inf-1.9]\'','\'<5.5-6.4]\'','\'<2.8-3.7]\'','\'<-inf-1.9]\'',benign
'\'<-inf-1.9]\'','\'<-inf-1.9]\'','\'<-inf-1.9]\'','\'<-inf-1.9]\'','\'<1.9-2.8]\'','\'<-inf-1.9]\'',benign
'\'<7.3-8.2]\'','\'<9.1-inf)\'','\'<9.1-inf)\'','\'<9.1-inf)\'','\'<5.5-6.4]\'','\'<9.1-inf)\'',malignant
'\'<4.6-5.5]\'','\'<-inf-1.9]\'','\'<-inf-1.9]\'','\'<-inf-1.9]\'','\'<1.9-2.8]\'','\'<1.9-2.8]\'',benign
'\'<8.2-9.1]\'','\'<7.3-8.2]\'','\'<7.3-8.2]\'','\'<8.2-9.1]\'','\'<5.5-6.4]\'','\'<3.7-4.6]\'',malignant
'\'<4.6-5.5]\'','\'<-inf-1.9]\'','\'<-inf-1.9]\'','\'<-inf-1.9]\'','\'<1.9-2.8]\'','\'<-inf-1.9]\'',benign
'\'<3.7-4.6]\'','\'<9.1-inf)\'','\'<7.3-8.2]\'','\'<4.6-5.5]\'','\'<3.7-4.6]\'','\'<9.1-inf)\'',malignant
'\'<1.9-2.8]\'','\'<4.6-5.5]\'','\'<6.4-7.3]\'','\'<5.5-6.4]\'','\'<3.7-4.6]\'','\'<6.4-7.3]\'',malignant
'\'<9.1-inf)\'','\'<2.8-3.7]\'','\'<3.7-4.6]\'','\'<4.6-5.5]\'','\'<2.8-3.7]\'','\'<3.7-4.6]\'',malignant
'\'<4.6-5.5]\'','\'<-inf-1.9]\'','\'<1.9-2.8]\'','\'<-inf-1.9]\'','\'<1.9-2.8]\'','\'<-inf-1.9]\'',benign
'\'<3.7-4.6]\'','\'<7.3-8.2]\'','\'<5.5-6.4]\'','\'<2.8-3.7]\'','\'<3.7-4.6]\'','\'<6.4-7.3]\'',malignant
'\'<4.6-5.5]\'','\'<-inf-1.9]\'','\'<-inf-1.9]\'','\'<-inf-1.9]\'','\'<1.9-2.8]\'','\'<1.9-2.8]\'',benign
'\'<3.7-4.6]\'','\'<-inf-1.9]\'','\'<1.9-2.8]\'','\'<-inf-1.9]\'','\'<1.9-2.8]\'','\'<1.9-2.8]\'',benign
'\'<4.6-5.5]\'','\'<-inf-1.9]\'','\'<2.8-3.7]\'','\'<-inf-1.9]\'','\'<1.9-2.8]\'','\'<2.8-3.7]\'',benign
'\'<2.8-3.7]\'','\'<-inf-1.9]\'','\'<-inf-1.9]\'','\'<-inf-1.9]\'','\'<1.9-2.8]\'','\'<1.9-2.8]\'',benign
'\'<4.6-5.5]\'','\'<1.9-2.8]\'','\'<3.7-4.6]\'','\'<-inf-1.9]\'','\'<-inf-1.9]\'','\'<-inf-1.9]\'',benign
'\'<2.8-3.7]\'','\'<-inf-1.9]\'','\'<-inf-1.9]\'','\'<-inf-1.9]\'','\'<1.9-2.8]\'','\'<1.9-2.8]\'',benign
'\'<-inf-1.9]\'','\'<-inf-1.9]\'','\'<-inf-1.9]\'','\'<-inf-1.9]\'','\'<-inf-1.9]\'','\'<1.9-2.8]\'',benign
'\'<3.7-4.6]\'','\'<-inf-1.9]\'','\'<-inf-1.9]\'','\'<-inf-1.9]\'','\'<1.9-2.8]\'','\'<1.9-2.8]\'',benign
'\'<4.6-5.5]\'','\'<3.7-4.6]\'','\'<5.5-6.4]\'','\'<7.3-8.2]\'','\'<3.7-4.6]\'','\'<7.3-8.2]\'',malignant
'\'<4.6-5.5]\'','\'<2.8-3.7]\'','\'<1.9-2.8]\'','\'<7.3-8.2]\'','\'<4.6-5.5]\'','\'<7.3-8.2]\'',malignant
'\'<9.1-inf)\'','\'<4.6-5.5]\'','\'<9.1-inf)\'','\'<2.8-3.7]\'','\'<4.6-5.5]\'','\'<6.4-7.3]\'',malignant
'\'<3.7-4.6]\'','\'<-inf-1.9]\'','\'<-inf-1.9]\'','\'<1.9-2.8]\'','\'<1.9-2.8]\'','\'<-inf-1.9]\'',benign
'\'<-inf-1.9]\'','\'<-inf-1.9]\'','\'<-inf-1.9]\'','\'<-inf-1.9]\'','\'<1.9-2.8]\'','\'<-inf-1.9]\'',benign
'\'<4.6-5.5]\'','\'<9.1-inf)\'','\'<9.1-inf)\'','\'<9.1-inf)\'','\'<9.1-inf)\'','\'<9.1-inf)\'',malignant
'\'<4.6-5.5]\'','\'<-inf-1.9]\'','\'<-inf-1.9]\'','\'<-inf-1.9]\'','\'<1.9-2.8]\'','\'<-inf-1.9]\'',benign
'\'<9.1-inf)\'','\'<3.7-4.6]\'','\'<2.8-3.7]\'','\'<9.1-inf)\'','\'<2.8-3.7]\'','\'<6.4-7.3]\'',malignant
'\'<4.6-5.5]\'','\'<9.1-inf)\'','\'<9.1-inf)\'','\'<9.1-inf)\'','\'<4.6-5.5]\'','\'<7.3-8.2]\'',malignant
'\'<7.3-8.2]\'','\'<9.1-inf)\'','\'<9.1-inf)\'','\'<9.1-inf)\'','\'<5.5-6.4]\'','\'<9.1-inf)\'',malignant
'\'<1.9-2.8]\'','\'<2.8-3.7]\'','\'<-inf-1.9]\'','\'<-inf-1.9]\'','\'<1.9-2.8]\'','\'<1.9-2.8]\'',benign
'\'<1.9-2.8]\'','\'<-inf-1.9]\'','\'<-inf-1.9]\'','\'<-inf-1.9]\'','\'<-inf-1.9]\'','\'<1.9-2.8]\'',benign
'\'<3.7-4.6]\'','\'<-inf-1.9]\'','\'<2.8-3.7]\'','\'<-inf-1.9]\'','\'<1.9-2.8]\'','\'<1.9-2.8]\'',benign
'\'<2.8-3.7]\'','\'<-inf-1.9]\'','\'<-inf-1.9]\'','\'<-inf-1.9]\'','\'<1.9-2.8]\'','\'<1.9-2.8]\'',benign
'\'<-inf-1.9]\'','\'<-inf-1.9]\'','\'<-inf-1.9]\'','\'<-inf-1.9]\'','\'<-inf-1.9]\'','\'<-inf-1.9]\'',benign
'\'<3.7-4.6]\'','\'<-inf-1.9]\'','\'<-inf-1.9]\'','\'<-inf-1.9]\'','\'<1.9-2.8]\'','\'<1.9-2.8]\'',benign
'\'<4.6-5.5]\'','\'<-inf-1.9]\'','\'<-inf-1.9]\'','\'<-inf-1.9]\'','\'<1.9-2.8]\'','\'<1.9-2.8]\'',benign
'\'<2.8-3.7]\'','\'<-inf-1.9]\'','\'<-inf-1.9]\'','\'<-inf-1.9]\'','\'<1.9-2.8]\'','\'<1.9-2.8]\'',benign
'\'<5.5-6.4]\'','\'<2.8-3.7]\'','\'<2.8-3.7]\'','\'<2.8-3.7]\'','\'<2.8-3.7]\'','\'<5.5-6.4]\'',benign
'\'<6.4-7.3]\'','\'<-inf-1.9]\'','\'<1.9-2.8]\'','\'<2.8-3.7]\'','\'<1.9-2.8]\'','\'<1.9-2.8]\'',benign
'\'<-inf-1.9]\'','\'<-inf-1.9]\'','\'<-inf-1.9]\'','\'<-inf-1.9]\'','\'<1.9-2.8]\'','\'<-inf-1.9]\'',benign
'\'<4.6-5.5]\'','\'<-inf-1.9]\'','\'<-inf-1.9]\'','\'<1.9-2.8]\'','\'<-inf-1.9]\'','\'<1.9-2.8]\'',benign
'\'<2.8-3.7]\'','\'<-inf-1.9]\'','\'<2.8-3.7]\'','\'<-inf-1.9]\'','\'<2.8-3.7]\'','\'<-inf-1.9]\'',benign
'\'<3.7-4.6]\'','\'<5.5-6.4]\'','\'<5.5-6.4]\'','\'<4.6-5.5]\'','\'<6.4-7.3]\'','\'<6.4-7.3]\'',malignant
'\'<1.9-2.8]\'','\'<-inf-1.9]\'','\'<-inf-1.9]\'','\'<-inf-1.9]\'','\'<1.9-2.8]\'','\'<-inf-1.9]\'',benign
'\'<1.9-2.8]\'','\'<-inf-1.9]\'','\'<-inf-1.9]\'','\'<-inf-1.9]\'','\'<1.9-2.8]\'','\'<-inf-1.9]\'',benign
'\'<3.7-4.6]\'','\'<-inf-1.9]\'','\'<-inf-1.9]\'','\'<-inf-1.9]\'','\'<1.9-2.8]\'','\'<-inf-1.9]\'',benign
'\'<5.5-6.4]\'','\'<1.9-2.8]\'','\'<2.8-3.7]\'','\'<-inf-1.9]\'','\'<1.9-2.8]\'','\'<-inf-1.9]\'',benign
'\'<4.6-5.5]\'','\'<-inf-1.9]\'','\'<-inf-1.9]\'','\'<-inf-1.9]\'','\'<1.9-2.8]\'','\'<1.9-2.8]\'',benign
'\'<-inf-1.9]\'','\'<-inf-1.9]\'','\'<-inf-1.9]\'','\'<-inf-1.9]\'','\'<1.9-2.8]\'','\'<-inf-1.9]\'',benign
'\'<7.3-8.2]\'','\'<6.4-7.3]\'','\'<3.7-4.6]\'','\'<3.7-4.6]\'','\'<4.6-5.5]\'','\'<4.6-5.5]\'',malignant
'\'<2.8-3.7]\'','\'<-inf-1.9]\'','\'<-inf-1.9]\'','\'<-inf-1.9]\'','\'<1.9-2.8]\'','\'<-inf-1.9]\'',benign
'\'<2.8-3.7]\'','\'<-inf-1.9]\'','\'<3.7-4.6]\'','\'<-inf-1.9]\'','\'<1.9-2.8]\'','\'<-inf-1.9]\'',benign
'\'<9.1-inf)\'','\'<9.1-inf)\'','\'<6.4-7.3]\'','\'<7.3-8.2]\'','\'<6.4-7.3]\'','\'<9.1-inf)\'',malignant
'\'<3.7-4.6]\'','\'<1.9-2.8]\'','\'<3.7-4.6]\'','\'<2.8-3.7]\'','\'<1.9-2.8]\'','\'<1.9-2.8]\'',benign
'\'<3.7-4.6]\'','\'<-inf-1.9]\'','\'<-inf-1.9]\'','\'<-inf-1.9]\'','\'<1.9-2.8]\'','\'<-inf-1.9]\'',benign
'\'<4.6-5.5]\'','\'<-inf-1.9]\'','\'<-inf-1.9]\'','\'<2.8-3.7]\'','\'<1.9-2.8]\'','\'<-inf-1.9]\'',benign
'\'<3.7-4.6]\'','\'<-inf-1.9]\'','\'<-inf-1.9]\'','\'<2.8-3.7]\'','\'<1.9-2.8]\'','\'<-inf-1.9]\'',benign
'\'<2.8-3.7]\'','\'<-inf-1.9]\'','\'<-inf-1.9]\'','\'<-inf-1.9]\'','\'<1.9-2.8]\'','\'<1.9-2.8]\'',benign
'\'<2.8-3.7]\'','\'<-inf-1.9]\'','\'<-inf-1.9]\'','\'<-inf-1.9]\'','\'<1.9-2.8]\'','\'<1.9-2.8]\'',benign
'\'<-inf-1.9]\'','\'<-inf-1.9]\'','\'<-inf-1.9]\'','\'<-inf-1.9]\'','\'<1.9-2.8]\'','\'<-inf-1.9]\'',benign
'\'<1.9-2.8]\'','\'<-inf-1.9]\'','\'<-inf-1.9]\'','\'<-inf-1.9]\'','\'<1.9-2.8]\'','\'<-inf-1.9]\'',benign
'\'<2.8-3.7]\'','\'<-inf-1.9]\'','\'<-inf-1.9]\'','\'<-inf-1.9]\'','\'<1.9-2.8]\'','\'<1.9-2.8]\'',benign
'\'<-inf-1.9]\'','\'<1.9-2.8]\'','\'<1.9-2.8]\'','\'<-inf-1.9]\'','\'<1.9-2.8]\'','\'<-inf-1.9]\'',benign
'\'<-inf-1.9]\'','\'<-inf-1.9]\'','\'<-inf-1.9]\'','\'<2.8-3.7]\'','\'<1.9-2.8]\'','\'<-inf-1.9]\'',benign
'\'<4.6-5.5]\'','\'<9.1-inf)\'','\'<9.1-inf)\'','\'<9.1-inf)\'','\'<9.1-inf)\'','\'<9.1-inf)\'',malignant
'\'<2.8-3.7]\'','\'<-inf-1.9]\'','\'<-inf-1.9]\'','\'<-inf-1.9]\'','\'<1.9-2.8]\'','\'<1.9-2.8]\'',benign
'\'<2.8-3.7]\'','\'<-inf-1.9]\'','\'<-inf-1.9]\'','\'<1.9-2.8]\'','\'<2.8-3.7]\'','\'<-inf-1.9]\'',benign
'\'<-inf-1.9]\'','\'<1.9-2.8]\'','\'<-inf-1.9]\'','\'<2.8-3.7]\'','\'<1.9-2.8]\'','\'<1.9-2.8]\'',benign
'\'<4.6-5.5]\'','\'<-inf-1.9]\'','\'<-inf-1.9]\'','\'<-inf-1.9]\'','\'<1.9-2.8]\'','\'<1.9-2.8]\'',benign
'\'<3.7-4.6]\'','\'<-inf-1.9]\'','\'<-inf-1.9]\'','\'<-inf-1.9]\'','\'<1.9-2.8]\'','\'<1.9-2.8]\'',benign
'\'<2.8-3.7]\'','\'<-inf-1.9]\'','\'<-inf-1.9]\'','\'<-inf-1.9]\'','\'<1.9-2.8]\'','\'<2.8-3.7]\'',benign
'\'<2.8-3.7]\'','\'<-inf-1.9]\'','\'<-inf-1.9]\'','\'<-inf-1.9]\'','\'<1.9-2.8]\'','\'<1.9-2.8]\'',benign
'\'<4.6-5.5]\'','\'<-inf-1.9]\'','\'<-inf-1.9]\'','\'<-inf-1.9]\'','\'<1.9-2.8]\'','\'<1.9-2.8]\'',benign
'\'<4.6-5.5]\'','\'<3.7-4.6]\'','\'<4.6-5.5]\'','\'<-inf-1.9]\'','\'<7.3-8.2]\'','\'<2.8-3.7]\'',benign
'\'<6.4-7.3]\'','\'<7.3-8.2]\'','\'<7.3-8.2]\'','\'<6.4-7.3]\'','\'<2.8-3.7]\'','\'<6.4-7.3]\'',malignant
'\'<-inf-1.9]\'','\'<-inf-1.9]\'','\'<-inf-1.9]\'','\'<-inf-1.9]\'','\'<1.9-2.8]\'','\'<-inf-1.9]\'',benign
'\'<-inf-1.9]\'','\'<-inf-1.9]\'','\'<-inf-1.9]\'','\'<-inf-1.9]\'','\'<1.9-2.8]\'','\'<1.9-2.8]\'',benign
'\'<3.7-4.6]\'','\'<-inf-1.9]\'','\'<-inf-1.9]\'','\'<-inf-1.9]\'','\'<1.9-2.8]\'','\'<2.8-3.7]\'',benign
'\'<-inf-1.9]\'','\'<-inf-1.9]\'','\'<2.8-3.7]\'','\'<-inf-1.9]\'','\'<1.9-2.8]\'','\'<1.9-2.8]\'',benign
'\'<-inf-1.9]\'','\'<-inf-1.9]\'','\'<2.8-3.7]\'','\'<-inf-1.9]\'','\'<1.9-2.8]\'','\'<1.9-2.8]\'',benign
'\'<2.8-3.7]\'','\'<-inf-1.9]\'','\'<-inf-1.9]\'','\'<2.8-3.7]\'','\'<1.9-2.8]\'','\'<1.9-2.8]\'',benign
'\'<-inf-1.9]\'','\'<-inf-1.9]\'','\'<-inf-1.9]\'','\'<-inf-1.9]\'','\'<1.9-2.8]\'','\'<-inf-1.9]\'',benign
'\'<4.6-5.5]\'','\'<1.9-2.8]\'','\'<1.9-2.8]\'','\'<1.9-2.8]\'','\'<1.9-2.8]\'','\'<-inf-1.9]\'',benign
'\'<2.8-3.7]\'','\'<-inf-1.9]\'','\'<-inf-1.9]\'','\'<-inf-1.9]\'','\'<1.9-2.8]\'','\'<2.8-3.7]\'',benign
'\'<4.6-5.5]\'','\'<6.4-7.3]\'','\'<3.7-4.6]\'','\'<-inf-1.9]\'','\'<5.5-6.4]\'','\'<6.4-7.3]\'',malignant
'\'<4.6-5.5]\'','\'<9.1-inf)\'','\'<9.1-inf)\'','\'<7.3-8.2]\'','\'<4.6-5.5]\'','\'<6.4-7.3]\'',malignant
'\'<2.8-3.7]\'','\'<9.1-inf)\'','\'<6.4-7.3]\'','\'<7.3-8.2]\'','\'<4.6-5.5]\'','\'<6.4-7.3]\'',malignant
'\'<2.8-3.7]\'','\'<1.9-2.8]\'','\'<-inf-1.9]\'','\'<1.9-2.8]\'','\'<1.9-2.8]\'','\'<2.8-3.7]\'',benign
'\'<1.9-2.8]\'','\'<-inf-1.9]\'','\'<-inf-1.9]\'','\'<-inf-1.9]\'','\'<1.9-2.8]\'','\'<2.8-3.7]\'',benign
'\'<4.6-5.5]\'','\'<2.8-3.7]\'','\'<1.9-2.8]\'','\'<-inf-1.9]\'','\'<2.8-3.7]\'','\'<-inf-1.9]\'',benign
'\'<-inf-1.9]\'','\'<-inf-1.9]\'','\'<-inf-1.9]\'','\'<-inf-1.9]\'','\'<1.9-2.8]\'','\'<1.9-2.8]\'',benign
'\'<3.7-4.6]\'','\'<-inf-1.9]\'','\'<3.7-4.6]\'','\'<-inf-1.9]\'','\'<1.9-2.8]\'','\'<-inf-1.9]\'',benign
'\'<-inf-1.9]\'','\'<-inf-1.9]\'','\'<1.9-2.8]\'','\'<-inf-1.9]\'','\'<1.9-2.8]\'','\'<1.9-2.8]\'',benign
'\'<4.6-5.5]\'','\'<-inf-1.9]\'','\'<-inf-1.9]\'','\'<-inf-1.9]\'','\'<1.9-2.8]\'','\'<-inf-1.9]\'',benign
'\'<-inf-1.9]\'','\'<-inf-1.9]\'','\'<-inf-1.9]\'','\'<-inf-1.9]\'','\'<1.9-2.8]\'','\'<-inf-1.9]\'',benign
'\'<1.9-2.8]\'','\'<-inf-1.9]\'','\'<-inf-1.9]\'','\'<-inf-1.9]\'','\'<1.9-2.8]\'','\'<-inf-1.9]\'',benign
'\'<9.1-inf)\'','\'<9.1-inf)\'','\'<9.1-inf)\'','\'<9.1-inf)\'','\'<4.6-5.5]\'','\'<9.1-inf)\'',malignant
'\'<4.6-5.5]\'','\'<9.1-inf)\'','\'<9.1-inf)\'','\'<9.1-inf)\'','\'<3.7-4.6]\'','\'<4.6-5.5]\'',malignant
'\'<4.6-5.5]\'','\'<-inf-1.9]\'','\'<-inf-1.9]\'','\'<-inf-1.9]\'','\'<1.9-2.8]\'','\'<2.8-3.7]\'',benign
'\'<-inf-1.9]\'','\'<-inf-1.9]\'','\'<-inf-1.9]\'','\'<-inf-1.9]\'','\'<1.9-2.8]\'','\'<-inf-1.9]\'',benign
'\'<-inf-1.9]\'','\'<-inf-1.9]\'','\'<-inf-1.9]\'','\'<-inf-1.9]\'','\'<1.9-2.8]\'','\'<-inf-1.9]\'',benign
'\'<-inf-1.9]\'','\'<-inf-1.9]\'','\'<-inf-1.9]\'','\'<-inf-1.9]\'','\'<1.9-2.8]\'','\'<-inf-1.9]\'',benign
'\'<-inf-1.9]\'','\'<-inf-1.9]\'','\'<-inf-1.9]\'','\'<-inf-1.9]\'','\'<1.9-2.8]\'','\'<-inf-1.9]\'',benign
'\'<2.8-3.7]\'','\'<-inf-1.9]\'','\'<-inf-1.9]\'','\'<-inf-1.9]\'','\'<1.9-2.8]\'','\'<1.9-2.8]\'',benign
'\'<3.7-4.6]\'','\'<-inf-1.9]\'','\'<-inf-1.9]\'','\'<-inf-1.9]\'','\'<1.9-2.8]\'','\'<-inf-1.9]\'',benign
'\'<-inf-1.9]\'','\'<-inf-1.9]\'','\'<-inf-1.9]\'','\'<-inf-1.9]\'','\'<1.9-2.8]\'','\'<-inf-1.9]\'',benign
'\'<-inf-1.9]\'','\'<-inf-1.9]\'','\'<-inf-1.9]\'','\'<2.8-3.7]\'','\'<1.9-2.8]\'','\'<-inf-1.9]\'',benign
'\'<4.6-5.5]\'','\'<9.1-inf)\'','\'<9.1-inf)\'','\'<4.6-5.5]\'','\'<3.7-4.6]\'','\'<3.7-4.6]\'',malignant
'\'<2.8-3.7]\'','\'<-inf-1.9]\'','\'<-inf-1.9]\'','\'<-inf-1.9]\'','\'<1.9-2.8]\'','\'<-inf-1.9]\'',benign
'\'<2.8-3.7]\'','\'<-inf-1.9]\'','\'<-inf-1.9]\'','\'<-inf-1.9]\'','\'<1.9-2.8]\'','\'<1.9-2.8]\'',benign
'\'<2.8-3.7]\'','\'<-inf-1.9]\'','\'<-inf-1.9]\'','\'<-inf-1.9]\'','\'<2.8-3.7]\'','\'<-inf-1.9]\'',benign
'\'<1.9-2.8]\'','\'<-inf-1.9]\'','\'<-inf-1.9]\'','\'<-inf-1.9]\'','\'<1.9-2.8]\'','\'<-inf-1.9]\'',benign
'\'<4.6-5.5]\'','\'<9.1-inf)\'','\'<9.1-inf)\'','\'<2.8-3.7]\'','\'<6.4-7.3]\'','\'<7.3-8.2]\'',malignant
'\'<3.7-4.6]\'','\'<7.3-8.2]\'','\'<5.5-6.4]\'','\'<3.7-4.6]\'','\'<2.8-3.7]\'','\'<9.1-inf)\'',malignant
'\'<3.7-4.6]\'','\'<7.3-8.2]\'','\'<7.3-8.2]\'','\'<4.6-5.5]\'','\'<3.7-4.6]\'','\'<9.1-inf)\'',malignant